EESchema Schematic File Version 2
LIBS:power
LIBS:device
LIBS:transistors
LIBS:conn
LIBS:linear
LIBS:regul
LIBS:74xx
LIBS:cmos4000
LIBS:adc-dac
LIBS:memory
LIBS:xilinx
LIBS:microcontrollers
LIBS:dsp
LIBS:microchip
LIBS:analog_switches
LIBS:motorola
LIBS:texas
LIBS:intel
LIBS:audio
LIBS:interface
LIBS:digital-audio
LIBS:philips
LIBS:display
LIBS:cypress
LIBS:siliconi
LIBS:opto
LIBS:atmel
LIBS:contrib
LIBS:valves
LIBS:bt_antennas
LIBS:ul
LIBS:led_board_1-cache
EELAYER 25 0
EELAYER END
$Descr A3 16535 11693
encoding utf-8
Sheet 1 1
Title ""
Date ""
Rev ""
Comp ""
Comment1 ""
Comment2 ""
Comment3 ""
Comment4 ""
$EndDescr
$Comp
L CONN_01X04 J1
U 1 1 590C49FE
P 5400 1450
F 0 "J1" H 5400 1700 50  0000 C CNN
F 1 "CONN_01X04" V 5500 1450 50  0000 C CNN
F 2 "" H 5400 1450 50  0001 C CNN
F 3 "" H 5400 1450 50  0001 C CNN
	1    5400 1450
	-1   0    0    1   
$EndComp
Text Label 5650 1300 0    60   ~ 0
+18V
Text Label 5650 1600 0    60   ~ 0
GND
Text Label 5650 1400 0    60   ~ 0
ADJ
Text Label 5650 1500 0    60   ~ 0
CTRL
$Comp
L GND #PWR3
U 1 1 590C4ACF
P 5950 1700
F 0 "#PWR3" H 5950 1450 50  0001 C CNN
F 1 "GND" H 5950 1550 50  0000 C CNN
F 2 "" H 5950 1700 50  0001 C CNN
F 3 "" H 5950 1700 50  0001 C CNN
	1    5950 1700
	1    0    0    -1  
$EndComp
$Comp
L VAA #PWR1
U 1 1 590C4AFA
P 5950 1200
F 0 "#PWR1" H 5950 1050 50  0001 C CNN
F 1 "VAA" H 5950 1350 50  0000 C CNN
F 2 "" H 5950 1200 50  0001 C CNN
F 3 "" H 5950 1200 50  0001 C CNN
	1    5950 1200
	1    0    0    -1  
$EndComp
Text GLabel 6300 1800 3    60   Input ~ 0
ADJ
$Comp
L R R24
U 1 1 590C809B
P 10550 7850
F 0 "R24" V 10630 7850 50  0000 C CNN
F 1 "0" V 10550 7850 50  0000 C CNN
F 2 "" V 10480 7850 50  0001 C CNN
F 3 "" H 10550 7850 50  0001 C CNN
	1    10550 7850
	0    1    1    0   
$EndComp
$Comp
L C C21
U 1 1 590C80A1
P 10300 8100
F 0 "C21" H 10325 8200 50  0000 L CNN
F 1 "0.1uF" H 10325 8000 50  0000 L CNN
F 2 "" H 10338 7950 50  0001 C CNN
F 3 "" H 10300 8100 50  0001 C CNN
	1    10300 8100
	1    0    0    -1  
$EndComp
$Comp
L GND #PWR18
U 1 1 590C80A7
P 10300 8450
F 0 "#PWR18" H 10300 8200 50  0001 C CNN
F 1 "GND" H 10300 8300 50  0000 C CNN
F 2 "" H 10300 8450 50  0001 C CNN
F 3 "" H 10300 8450 50  0001 C CNN
	1    10300 8450
	1    0    0    -1  
$EndComp
$Comp
L R R23
U 1 1 590C80B3
P 10050 7850
F 0 "R23" V 10130 7850 50  0000 C CNN
F 1 "0" V 10050 7850 50  0000 C CNN
F 2 "" V 9980 7850 50  0001 C CNN
F 3 "" H 10050 7850 50  0001 C CNN
	1    10050 7850
	0    1    1    0   
$EndComp
Text GLabel 9800 7850 0    60   Input ~ 0
ADJ
$Comp
L R R20
U 1 1 590C80BC
P 9500 7350
F 0 "R20" V 9580 7350 50  0000 C CNN
F 1 "0" V 9500 7350 50  0000 C CNN
F 2 "" V 9430 7350 50  0001 C CNN
F 3 "" H 9500 7350 50  0001 C CNN
	1    9500 7350
	-1   0    0    1   
$EndComp
$Comp
L C C20
U 1 1 590C80C2
P 9500 8100
F 0 "C20" H 9525 8200 50  0000 L CNN
F 1 "1uF" H 9525 8000 50  0000 L CNN
F 2 "" H 9538 7950 50  0001 C CNN
F 3 "" H 9500 8100 50  0001 C CNN
	1    9500 8100
	1    0    0    -1  
$EndComp
$Comp
L VAA #PWR14
U 1 1 590C80CC
P 9500 7150
F 0 "#PWR14" H 9500 7000 50  0001 C CNN
F 1 "VAA" H 9500 7300 50  0000 C CNN
F 2 "" H 9500 7150 50  0001 C CNN
F 3 "" H 9500 7150 50  0001 C CNN
	1    9500 7150
	1    0    0    -1  
$EndComp
$Comp
L R R21
U 1 1 590C80D3
P 11300 7050
F 0 "R21" V 11380 7050 50  0000 C CNN
F 1 "0.27" V 11300 7050 50  0000 C CNN
F 2 "" V 11230 7050 50  0001 C CNN
F 3 "" H 11300 7050 50  0001 C CNN
	1    11300 7050
	0    1    1    0   
$EndComp
$Comp
L R R22
U 1 1 590C80D9
P 11850 7050
F 0 "R22" V 11930 7050 50  0000 C CNN
F 1 "0" V 11850 7050 50  0000 C CNN
F 2 "" V 11780 7050 50  0001 C CNN
F 3 "" H 11850 7050 50  0001 C CNN
	1    11850 7050
	0    1    1    0   
$EndComp
$Comp
L L L5
U 1 1 590C8114
P 13550 8150
F 0 "L5" V 13500 8150 50  0000 C CNN
F 1 "L" V 13625 8150 50  0000 C CNN
F 2 "" H 13550 8150 50  0001 C CNN
F 3 "" H 13550 8150 50  0001 C CNN
	1    13550 8150
	0    -1   -1   0   
$EndComp
$Comp
L C C19
U 1 1 590C811E
P 13650 7050
F 0 "C19" H 13675 7150 50  0000 L CNN
F 1 "1uF" H 13675 6950 50  0000 L CNN
F 2 "" H 13688 6900 50  0001 C CNN
F 3 "" H 13650 7050 50  0001 C CNN
	1    13650 7050
	0    1    1    0   
$EndComp
$Comp
L D VD5
U 1 1 590C8127
P 11600 8500
F 0 "VD5" H 11600 8600 50  0000 C CNN
F 1 "D" H 11600 8400 50  0000 C CNN
F 2 "" H 11600 8500 50  0001 C CNN
F 3 "" H 11600 8500 50  0001 C CNN
	1    11600 8500
	1    0    0    -1  
$EndComp
$Comp
L R R19
U 1 1 590C890F
P 10550 5950
F 0 "R19" V 10630 5950 50  0000 C CNN
F 1 "0" V 10550 5950 50  0000 C CNN
F 2 "" V 10480 5950 50  0001 C CNN
F 3 "" H 10550 5950 50  0001 C CNN
	1    10550 5950
	0    1    1    0   
$EndComp
$Comp
L C C18
U 1 1 590C8915
P 10300 6200
F 0 "C18" H 10325 6300 50  0000 L CNN
F 1 "0.1uF" H 10325 6100 50  0000 L CNN
F 2 "" H 10338 6050 50  0001 C CNN
F 3 "" H 10300 6200 50  0001 C CNN
	1    10300 6200
	1    0    0    -1  
$EndComp
$Comp
L GND #PWR13
U 1 1 590C891B
P 10300 6550
F 0 "#PWR13" H 10300 6300 50  0001 C CNN
F 1 "GND" H 10300 6400 50  0000 C CNN
F 2 "" H 10300 6550 50  0001 C CNN
F 3 "" H 10300 6550 50  0001 C CNN
	1    10300 6550
	1    0    0    -1  
$EndComp
$Comp
L R R18
U 1 1 590C8927
P 10050 5950
F 0 "R18" V 10130 5950 50  0000 C CNN
F 1 "0" V 10050 5950 50  0000 C CNN
F 2 "" V 9980 5950 50  0001 C CNN
F 3 "" H 10050 5950 50  0001 C CNN
	1    10050 5950
	0    1    1    0   
$EndComp
Text GLabel 9800 5950 0    60   Input ~ 0
ADJ
$Comp
L R R12
U 1 1 590C8930
P 9500 5450
F 0 "R12" V 9580 5450 50  0000 C CNN
F 1 "0" V 9500 5450 50  0000 C CNN
F 2 "" V 9430 5450 50  0001 C CNN
F 3 "" H 9500 5450 50  0001 C CNN
	1    9500 5450
	-1   0    0    1   
$EndComp
$Comp
L C C16
U 1 1 590C8936
P 9500 6200
F 0 "C16" H 9525 6300 50  0000 L CNN
F 1 "1uF" H 9525 6100 50  0000 L CNN
F 2 "" H 9538 6050 50  0001 C CNN
F 3 "" H 9500 6200 50  0001 C CNN
	1    9500 6200
	1    0    0    -1  
$EndComp
$Comp
L VAA #PWR10
U 1 1 590C8940
P 9500 5250
F 0 "#PWR10" H 9500 5100 50  0001 C CNN
F 1 "VAA" H 9500 5400 50  0000 C CNN
F 2 "" H 9500 5250 50  0001 C CNN
F 3 "" H 9500 5250 50  0001 C CNN
	1    9500 5250
	1    0    0    -1  
$EndComp
$Comp
L R R15
U 1 1 590C8947
P 11300 5150
F 0 "R15" V 11380 5150 50  0000 C CNN
F 1 "0.27" V 11300 5150 50  0000 C CNN
F 2 "" V 11230 5150 50  0001 C CNN
F 3 "" H 11300 5150 50  0001 C CNN
	1    11300 5150
	0    1    1    0   
$EndComp
$Comp
L R R16
U 1 1 590C894D
P 11850 5150
F 0 "R16" V 11930 5150 50  0000 C CNN
F 1 "0" V 11850 5150 50  0000 C CNN
F 2 "" V 11780 5150 50  0001 C CNN
F 3 "" H 11850 5150 50  0001 C CNN
	1    11850 5150
	0    1    1    0   
$EndComp
$Comp
L L L4
U 1 1 590C8988
P 13550 6250
F 0 "L4" V 13500 6250 50  0000 C CNN
F 1 "L" V 13625 6250 50  0000 C CNN
F 2 "" H 13550 6250 50  0001 C CNN
F 3 "" H 13550 6250 50  0001 C CNN
	1    13550 6250
	0    -1   -1   0   
$EndComp
$Comp
L C C12
U 1 1 590C8992
P 13650 5150
F 0 "C12" H 13675 5250 50  0000 L CNN
F 1 "1uF" H 13675 5050 50  0000 L CNN
F 2 "" H 13688 5000 50  0001 C CNN
F 3 "" H 13650 5150 50  0001 C CNN
	1    13650 5150
	0    1    1    0   
$EndComp
$Comp
L D VD4
U 1 1 590C899B
P 11600 6600
F 0 "VD4" H 11600 6700 50  0000 C CNN
F 1 "D" H 11600 6500 50  0000 C CNN
F 2 "" H 11600 6600 50  0001 C CNN
F 3 "" H 11600 6600 50  0001 C CNN
	1    11600 6600
	1    0    0    -1  
$EndComp
$Comp
L R R11
U 1 1 590CA5D4
P 10550 4050
F 0 "R11" V 10630 4050 50  0000 C CNN
F 1 "0" V 10550 4050 50  0000 C CNN
F 2 "" V 10480 4050 50  0001 C CNN
F 3 "" H 10550 4050 50  0001 C CNN
	1    10550 4050
	0    1    1    0   
$EndComp
$Comp
L C C7
U 1 1 590CA5DA
P 10300 4300
F 0 "C7" H 10325 4400 50  0000 L CNN
F 1 "0.1uF" H 10325 4200 50  0000 L CNN
F 2 "" H 10338 4150 50  0001 C CNN
F 3 "" H 10300 4300 50  0001 C CNN
	1    10300 4300
	1    0    0    -1  
$EndComp
$Comp
L GND #PWR9
U 1 1 590CA5E0
P 10300 4650
F 0 "#PWR9" H 10300 4400 50  0001 C CNN
F 1 "GND" H 10300 4500 50  0000 C CNN
F 2 "" H 10300 4650 50  0001 C CNN
F 3 "" H 10300 4650 50  0001 C CNN
	1    10300 4650
	1    0    0    -1  
$EndComp
$Comp
L R R10
U 1 1 590CA5EC
P 10050 4050
F 0 "R10" V 10130 4050 50  0000 C CNN
F 1 "0" V 10050 4050 50  0000 C CNN
F 2 "" V 9980 4050 50  0001 C CNN
F 3 "" H 10050 4050 50  0001 C CNN
	1    10050 4050
	0    1    1    0   
$EndComp
Text GLabel 9800 4050 0    60   Input ~ 0
ADJ
$Comp
L C C5
U 1 1 590CA5FB
P 9500 4300
F 0 "C5" H 9525 4400 50  0000 L CNN
F 1 "1uF" H 9525 4200 50  0000 L CNN
F 2 "" H 9538 4150 50  0001 C CNN
F 3 "" H 9500 4300 50  0001 C CNN
	1    9500 4300
	1    0    0    -1  
$EndComp
$Comp
L VAA #PWR6
U 1 1 590CA605
P 9500 3350
F 0 "#PWR6" H 9500 3200 50  0001 C CNN
F 1 "VAA" H 9500 3500 50  0000 C CNN
F 2 "" H 9500 3350 50  0001 C CNN
F 3 "" H 9500 3350 50  0001 C CNN
	1    9500 3350
	1    0    0    -1  
$EndComp
$Comp
L R R8
U 1 1 590CA60C
P 11300 3250
F 0 "R8" V 11380 3250 50  0000 C CNN
F 1 "0.27" V 11300 3250 50  0000 C CNN
F 2 "" V 11230 3250 50  0001 C CNN
F 3 "" H 11300 3250 50  0001 C CNN
	1    11300 3250
	0    1    1    0   
$EndComp
$Comp
L R R9
U 1 1 590CA612
P 11850 3250
F 0 "R9" V 11930 3250 50  0000 C CNN
F 1 "0" V 11850 3250 50  0000 C CNN
F 2 "" V 11780 3250 50  0001 C CNN
F 3 "" H 11850 3250 50  0001 C CNN
	1    11850 3250
	0    1    1    0   
$EndComp
$Comp
L L L2
U 1 1 590CA64D
P 13550 4350
F 0 "L2" V 13500 4350 50  0000 C CNN
F 1 "L" V 13625 4350 50  0000 C CNN
F 2 "" H 13550 4350 50  0001 C CNN
F 3 "" H 13550 4350 50  0001 C CNN
	1    13550 4350
	0    -1   -1   0   
$EndComp
$Comp
L C C4
U 1 1 590CA657
P 13650 3250
F 0 "C4" H 13675 3350 50  0000 L CNN
F 1 "1uF" H 13675 3150 50  0000 L CNN
F 2 "" H 13688 3100 50  0001 C CNN
F 3 "" H 13650 3250 50  0001 C CNN
	1    13650 3250
	0    1    1    0   
$EndComp
$Comp
L D VD2
U 1 1 590CA660
P 11600 4700
F 0 "VD2" H 11600 4800 50  0000 C CNN
F 1 "D" H 11600 4600 50  0000 C CNN
F 2 "" H 11600 4700 50  0001 C CNN
F 3 "" H 11600 4700 50  0001 C CNN
	1    11600 4700
	1    0    0    -1  
$EndComp
$Comp
L ZXLD1350 DA1
U 1 1 590CA673
P 11600 2350
F 0 "DA1" H 11100 3100 60  0000 C CNN
F 1 "ZXLD1350" H 11950 3100 60  0000 C CNN
F 2 "DDC0006A_N" H 11600 2290 60  0001 C CNN
F 3 "" H 11600 2350 60  0000 C CNN
	1    11600 2350
	1    0    0    -1  
$EndComp
$Comp
L R R5
U 1 1 590CA679
P 10550 2150
F 0 "R5" V 10630 2150 50  0000 C CNN
F 1 "0" V 10550 2150 50  0000 C CNN
F 2 "" V 10480 2150 50  0001 C CNN
F 3 "" H 10550 2150 50  0001 C CNN
	1    10550 2150
	0    1    1    0   
$EndComp
$Comp
L C C3
U 1 1 590CA67F
P 10300 2400
F 0 "C3" H 10325 2500 50  0000 L CNN
F 1 "0.1uF" H 10325 2300 50  0000 L CNN
F 2 "" H 10338 2250 50  0001 C CNN
F 3 "" H 10300 2400 50  0001 C CNN
	1    10300 2400
	1    0    0    -1  
$EndComp
$Comp
L GND #PWR5
U 1 1 590CA685
P 10300 2750
F 0 "#PWR5" H 10300 2500 50  0001 C CNN
F 1 "GND" H 10300 2600 50  0000 C CNN
F 2 "" H 10300 2750 50  0001 C CNN
F 3 "" H 10300 2750 50  0001 C CNN
	1    10300 2750
	1    0    0    -1  
$EndComp
$Comp
L R R4
U 1 1 590CA691
P 10050 2150
F 0 "R4" V 10130 2150 50  0000 C CNN
F 1 "0" V 10050 2150 50  0000 C CNN
F 2 "" V 9980 2150 50  0001 C CNN
F 3 "" H 10050 2150 50  0001 C CNN
	1    10050 2150
	0    1    1    0   
$EndComp
Text GLabel 9800 2150 0    60   Input ~ 0
ADJ
$Comp
L R R1
U 1 1 590CA69A
P 9500 1650
F 0 "R1" V 9580 1650 50  0000 C CNN
F 1 "0" V 9500 1650 50  0000 C CNN
F 2 "" V 9430 1650 50  0001 C CNN
F 3 "" H 9500 1650 50  0001 C CNN
	1    9500 1650
	-1   0    0    1   
$EndComp
$Comp
L C C2
U 1 1 590CA6A0
P 9500 2400
F 0 "C2" H 9525 2500 50  0000 L CNN
F 1 "1uF" H 9525 2300 50  0000 L CNN
F 2 "" H 9538 2250 50  0001 C CNN
F 3 "" H 9500 2400 50  0001 C CNN
	1    9500 2400
	1    0    0    -1  
$EndComp
$Comp
L VAA #PWR2
U 1 1 590CA6AA
P 9500 1450
F 0 "#PWR2" H 9500 1300 50  0001 C CNN
F 1 "VAA" H 9500 1600 50  0000 C CNN
F 2 "" H 9500 1450 50  0001 C CNN
F 3 "" H 9500 1450 50  0001 C CNN
	1    9500 1450
	1    0    0    -1  
$EndComp
$Comp
L R R2
U 1 1 590CA6B1
P 11300 1350
F 0 "R2" V 11380 1350 50  0000 C CNN
F 1 "0.27" V 11300 1350 50  0000 C CNN
F 2 "" V 11230 1350 50  0001 C CNN
F 3 "" H 11300 1350 50  0001 C CNN
	1    11300 1350
	0    1    1    0   
$EndComp
$Comp
L R R3
U 1 1 590CA6B7
P 11850 1350
F 0 "R3" V 11930 1350 50  0000 C CNN
F 1 "0" V 11850 1350 50  0000 C CNN
F 2 "" V 11780 1350 50  0001 C CNN
F 3 "" H 11850 1350 50  0001 C CNN
	1    11850 1350
	0    1    1    0   
$EndComp
$Comp
L L L1
U 1 1 590CA6F2
P 13550 2450
F 0 "L1" V 13500 2450 50  0000 C CNN
F 1 "L" V 13625 2450 50  0000 C CNN
F 2 "" H 13550 2450 50  0001 C CNN
F 3 "" H 13550 2450 50  0001 C CNN
	1    13550 2450
	0    -1   -1   0   
$EndComp
$Comp
L C C1
U 1 1 590CA6FC
P 13650 1350
F 0 "C1" H 13675 1450 50  0000 L CNN
F 1 "1uF" H 13675 1250 50  0000 L CNN
F 2 "" H 13688 1200 50  0001 C CNN
F 3 "" H 13650 1350 50  0001 C CNN
	1    13650 1350
	0    1    1    0   
$EndComp
$Comp
L D VD1
U 1 1 590CA705
P 11600 2800
F 0 "VD1" H 11600 2900 50  0000 C CNN
F 1 "D" H 11600 2700 50  0000 C CNN
F 2 "" H 11600 2800 50  0001 C CNN
F 3 "" H 11600 2800 50  0001 C CNN
	1    11600 2800
	1    0    0    -1  
$EndComp
$Comp
L CONN_01X05 XS1
U 1 1 590CB185
P 7200 1500
F 0 "XS1" H 7200 1800 50  0000 C CNN
F 1 "CONN_01X05" V 7300 1500 50  0000 C CNN
F 2 "" H 7200 1500 50  0001 C CNN
F 3 "" H 7200 1500 50  0001 C CNN
	1    7200 1500
	1    0    0    -1  
$EndComp
$Comp
L LMR14203DDC DA3
U 1 1 590CD637
P 3150 3250
F 0 "DA3" H 2650 4000 60  0000 C CNN
F 1 "LMR14203DDC" H 3450 4000 60  0000 C CNN
F 2 "DDC0006A_N" H 3150 3190 60  0001 C CNN
F 3 "" H 3150 3250 60  0000 C CNN
	1    3150 3250
	1    0    0    -1  
$EndComp
$Comp
L C C15
U 1 1 590CE2B9
P 1900 2950
F 0 "C15" H 1925 3050 50  0000 L CNN
F 1 "1uF" H 1925 2850 50  0000 L CNN
F 2 "" H 1938 2800 50  0001 C CNN
F 3 "" H 1900 2950 50  0001 C CNN
	1    1900 2950
	1    0    0    -1  
$EndComp
$Comp
L C C14
U 1 1 590CE3BE
P 1600 2950
F 0 "C14" H 1625 3050 50  0000 L CNN
F 1 "1uF" H 1625 2850 50  0000 L CNN
F 2 "" H 1638 2800 50  0001 C CNN
F 3 "" H 1600 2950 50  0001 C CNN
	1    1600 2950
	1    0    0    -1  
$EndComp
$Comp
L C C13
U 1 1 590CE499
P 1300 2950
F 0 "C13" H 1325 3050 50  0000 L CNN
F 1 "1uF" H 1325 2850 50  0000 L CNN
F 2 "" H 1338 2800 50  0001 C CNN
F 3 "" H 1300 2950 50  0001 C CNN
	1    1300 2950
	1    0    0    -1  
$EndComp
$Comp
L VAA #PWR7
U 1 1 590CF024
P 1300 2600
F 0 "#PWR7" H 1300 2450 50  0001 C CNN
F 1 "VAA" H 1300 2750 50  0000 C CNN
F 2 "" H 1300 2600 50  0001 C CNN
F 3 "" H 1300 2600 50  0001 C CNN
	1    1300 2600
	1    0    0    -1  
$EndComp
$Comp
L GND #PWR11
U 1 1 590CFAFA
P 4100 4600
F 0 "#PWR11" H 4100 4350 50  0001 C CNN
F 1 "GND" H 4100 4450 50  0000 C CNN
F 2 "" H 4100 4600 50  0001 C CNN
F 3 "" H 4100 4600 50  0001 C CNN
	1    4100 4600
	1    0    0    -1  
$EndComp
$Comp
L C C6
U 1 1 590D14E7
P 4250 2750
F 0 "C6" H 4275 2850 50  0000 L CNN
F 1 "1uF" H 4275 2650 50  0000 L CNN
F 2 "" H 4288 2600 50  0001 C CNN
F 3 "" H 4250 2750 50  0001 C CNN
	1    4250 2750
	0    1    1    0   
$EndComp
$Comp
L L L3
U 1 1 590D1C31
P 4750 2750
F 0 "L3" V 4700 2750 50  0000 C CNN
F 1 "L" V 4825 2750 50  0000 C CNN
F 2 "" H 4750 2750 50  0001 C CNN
F 3 "" H 4750 2750 50  0001 C CNN
	1    4750 2750
	0    -1   -1   0   
$EndComp
$Comp
L D VD3
U 1 1 590D1E30
P 4500 3800
F 0 "VD3" H 4500 3900 50  0000 C CNN
F 1 "D" H 4500 3700 50  0000 C CNN
F 2 "" H 4500 3800 50  0001 C CNN
F 3 "" H 4500 3800 50  0001 C CNN
	1    4500 3800
	0    1    1    0   
$EndComp
$Comp
L C C8
U 1 1 590D2415
P 5200 3050
F 0 "C8" H 5225 3150 50  0000 L CNN
F 1 "1uF" H 5225 2950 50  0000 L CNN
F 2 "" H 5238 2900 50  0001 C CNN
F 3 "" H 5200 3050 50  0001 C CNN
	1    5200 3050
	1    0    0    -1  
$EndComp
$Comp
L C C9
U 1 1 590D24F4
P 5450 3050
F 0 "C9" H 5475 3150 50  0000 L CNN
F 1 "1uF" H 5475 2950 50  0000 L CNN
F 2 "" H 5488 2900 50  0001 C CNN
F 3 "" H 5450 3050 50  0001 C CNN
	1    5450 3050
	1    0    0    -1  
$EndComp
$Comp
L C C10
U 1 1 590D25DB
P 5700 3050
F 0 "C10" H 5725 3150 50  0000 L CNN
F 1 "1uF" H 5725 2950 50  0000 L CNN
F 2 "" H 5738 2900 50  0001 C CNN
F 3 "" H 5700 3050 50  0001 C CNN
	1    5700 3050
	1    0    0    -1  
$EndComp
$Comp
L C C11
U 1 1 590D26C6
P 5950 3050
F 0 "C11" H 5975 3150 50  0000 L CNN
F 1 "1uF" H 5975 2950 50  0000 L CNN
F 2 "" H 5988 2900 50  0001 C CNN
F 3 "" H 5950 3050 50  0001 C CNN
	1    5950 3050
	1    0    0    -1  
$EndComp
$Comp
L CONN_01X02 J2
U 1 1 590D43BD
P 6750 2800
F 0 "J2" H 6750 2950 50  0000 C CNN
F 1 "CONN_01X02" V 6850 2800 50  0000 C CNN
F 2 "" H 6750 2800 50  0001 C CNN
F 3 "" H 6750 2800 50  0001 C CNN
	1    6750 2800
	1    0    0    -1  
$EndComp
$Comp
L CP C17
U 1 1 590D501D
P 6300 3050
F 0 "C17" H 6325 3150 50  0000 L CNN
F 1 "22uF" H 6325 2950 50  0000 L CNN
F 2 "" H 6338 2900 50  0001 C CNN
F 3 "" H 6300 3050 50  0001 C CNN
	1    6300 3050
	1    0    0    -1  
$EndComp
$Comp
L R R14
U 1 1 590D6276
P 5000 3100
F 0 "R14" V 5080 3100 50  0000 C CNN
F 1 "14.7k" V 5000 3100 50  0000 C CNN
F 2 "" V 4930 3100 50  0001 C CNN
F 3 "" H 5000 3100 50  0001 C CNN
	1    5000 3100
	1    0    0    -1  
$EndComp
$Comp
L R R13
U 1 1 590D6871
P 5000 3600
F 0 "R13" V 5080 3600 50  0000 C CNN
F 1 "1k" V 5000 3600 50  0000 C CNN
F 2 "" V 4930 3600 50  0001 C CNN
F 3 "" H 5000 3600 50  0001 C CNN
	1    5000 3600
	1    0    0    -1  
$EndComp
$Comp
L R R17
U 1 1 590D7596
P 4100 4350
F 0 "R17" V 4180 4350 50  0000 C CNN
F 1 "0" V 4100 4350 50  0000 C CNN
F 2 "" V 4030 4350 50  0001 C CNN
F 3 "" H 4100 4350 50  0001 C CNN
	1    4100 4350
	1    0    0    -1  
$EndComp
$Comp
L R R6
U 1 1 590D8DAF
P 6500 1500
F 0 "R6" V 6580 1500 50  0000 C CNN
F 1 "0" V 6500 1500 50  0000 C CNN
F 2 "" V 6430 1500 50  0001 C CNN
F 3 "" H 6500 1500 50  0001 C CNN
	1    6500 1500
	0    1    1    0   
$EndComp
$Comp
L R R7
U 1 1 590D973C
P 6800 1600
F 0 "R7" V 6880 1600 50  0000 C CNN
F 1 "0" V 6800 1600 50  0000 C CNN
F 2 "" V 6730 1600 50  0001 C CNN
F 3 "" H 6800 1600 50  0001 C CNN
	1    6800 1600
	0    1    1    0   
$EndComp
$Comp
L ZXLD1350 DA2
U 1 1 590DEE71
P 11600 4250
F 0 "DA2" H 11100 5000 60  0000 C CNN
F 1 "ZXLD1350" H 11950 5000 60  0000 C CNN
F 2 "DDC0006A_N" H 11600 4190 60  0001 C CNN
F 3 "" H 11600 4250 60  0000 C CNN
	1    11600 4250
	1    0    0    -1  
$EndComp
$Comp
L ZXLD1350 DA4
U 1 1 590DEFDF
P 11600 6150
F 0 "DA4" H 11100 6900 60  0000 C CNN
F 1 "ZXLD1350" H 11950 6900 60  0000 C CNN
F 2 "DDC0006A_N" H 11600 6090 60  0001 C CNN
F 3 "" H 11600 6150 60  0000 C CNN
	1    11600 6150
	1    0    0    -1  
$EndComp
$Comp
L ZXLD1350 DA5
U 1 1 590DF4BE
P 11600 8050
F 0 "DA5" H 11100 8800 60  0000 C CNN
F 1 "ZXLD1350" H 11950 8800 60  0000 C CNN
F 2 "DDC0006A_N" H 11600 7990 60  0001 C CNN
F 3 "" H 11600 8050 60  0000 C CNN
	1    11600 8050
	1    0    0    -1  
$EndComp
$Comp
L LED_PAD LED1
U 1 1 591477FC
P 12700 1850
F 0 "LED1" H 12700 2075 50  0000 C CNN
F 1 "LED_PAD" H 12700 2000 50  0001 C CNN
F 2 "" H 12700 1850 50  0000 C CNN
F 3 "" H 12700 1850 50  0000 C CNN
	1    12700 1850
	-1   0    0    -1  
$EndComp
$Comp
L LED_PAD LED2
U 1 1 59148383
P 13050 1850
F 0 "LED2" H 13050 2075 50  0000 C CNN
F 1 "LED_PAD" H 13050 2000 50  0001 C CNN
F 2 "" H 13050 1850 50  0000 C CNN
F 3 "" H 13050 1850 50  0000 C CNN
	1    13050 1850
	-1   0    0    -1  
$EndComp
$Comp
L LED_PAD LED3
U 1 1 59148F7D
P 13400 1850
F 0 "LED3" H 13400 2075 50  0000 C CNN
F 1 "LED_PAD" H 13400 2000 50  0001 C CNN
F 2 "" H 13400 1850 50  0000 C CNN
F 3 "" H 13400 1850 50  0000 C CNN
	1    13400 1850
	-1   0    0    -1  
$EndComp
$Comp
L LED_PAD LED4
U 1 1 59148F83
P 13750 1850
F 0 "LED4" H 13750 2075 50  0000 C CNN
F 1 "LED_PAD" H 13750 2000 50  0001 C CNN
F 2 "" H 13750 1850 50  0000 C CNN
F 3 "" H 13750 1850 50  0000 C CNN
	1    13750 1850
	-1   0    0    -1  
$EndComp
$Comp
L LED_PAD LED5
U 1 1 591490D7
P 14100 1850
F 0 "LED5" H 14100 2075 50  0000 C CNN
F 1 "LED_PAD" H 14100 2000 50  0001 C CNN
F 2 "" H 14100 1850 50  0000 C CNN
F 3 "" H 14100 1850 50  0000 C CNN
	1    14100 1850
	-1   0    0    -1  
$EndComp
$Comp
L LED_PAD LED6
U 1 1 591490DD
P 14450 1850
F 0 "LED6" H 14450 2075 50  0000 C CNN
F 1 "LED_PAD" H 14450 2000 50  0001 C CNN
F 2 "" H 14450 1850 50  0000 C CNN
F 3 "" H 14450 1850 50  0000 C CNN
	1    14450 1850
	-1   0    0    -1  
$EndComp
$Comp
L LED_PAD LED7
U 1 1 591490E3
P 14800 1850
F 0 "LED7" H 14800 2075 50  0000 C CNN
F 1 "LED_PAD" H 14800 2000 50  0001 C CNN
F 2 "" H 14800 1850 50  0000 C CNN
F 3 "" H 14800 1850 50  0000 C CNN
	1    14800 1850
	-1   0    0    -1  
$EndComp
$Comp
L LED_PAD LED22
U 1 1 5914AF89
P 12700 7550
F 0 "LED22" H 12700 7775 50  0000 C CNN
F 1 "LED_PAD" H 12700 7700 50  0001 C CNN
F 2 "" H 12700 7550 50  0000 C CNN
F 3 "" H 12700 7550 50  0000 C CNN
	1    12700 7550
	-1   0    0    -1  
$EndComp
$Comp
L LED_PAD LED23
U 1 1 5914AF8F
P 13050 7550
F 0 "LED23" H 13050 7775 50  0000 C CNN
F 1 "LED_PAD" H 13050 7700 50  0001 C CNN
F 2 "" H 13050 7550 50  0000 C CNN
F 3 "" H 13050 7550 50  0000 C CNN
	1    13050 7550
	-1   0    0    -1  
$EndComp
$Comp
L LED_PAD LED24
U 1 1 5914AF95
P 13400 7550
F 0 "LED24" H 13400 7775 50  0000 C CNN
F 1 "LED_PAD" H 13400 7700 50  0001 C CNN
F 2 "" H 13400 7550 50  0000 C CNN
F 3 "" H 13400 7550 50  0000 C CNN
	1    13400 7550
	-1   0    0    -1  
$EndComp
$Comp
L LED_PAD LED25
U 1 1 5914AF9B
P 13750 7550
F 0 "LED25" H 13750 7775 50  0000 C CNN
F 1 "LED_PAD" H 13750 7700 50  0001 C CNN
F 2 "" H 13750 7550 50  0000 C CNN
F 3 "" H 13750 7550 50  0000 C CNN
	1    13750 7550
	-1   0    0    -1  
$EndComp
$Comp
L LED_PAD LED26
U 1 1 5914AFA1
P 14100 7550
F 0 "LED26" H 14100 7775 50  0000 C CNN
F 1 "LED_PAD" H 14100 7700 50  0001 C CNN
F 2 "" H 14100 7550 50  0000 C CNN
F 3 "" H 14100 7550 50  0000 C CNN
	1    14100 7550
	-1   0    0    -1  
$EndComp
$Comp
L LED_PAD LED27
U 1 1 5914AFA7
P 14450 7550
F 0 "LED27" H 14450 7775 50  0000 C CNN
F 1 "LED_PAD" H 14450 7700 50  0001 C CNN
F 2 "" H 14450 7550 50  0000 C CNN
F 3 "" H 14450 7550 50  0000 C CNN
	1    14450 7550
	-1   0    0    -1  
$EndComp
$Comp
L LED_PAD LED28
U 1 1 5914AFAD
P 14800 7550
F 0 "LED28" H 14800 7775 50  0000 C CNN
F 1 "LED_PAD" H 14800 7700 50  0001 C CNN
F 2 "" H 14800 7550 50  0000 C CNN
F 3 "" H 14800 7550 50  0000 C CNN
	1    14800 7550
	-1   0    0    -1  
$EndComp
$Comp
L GND #PWR4
U 1 1 5914D4F5
P 12700 2200
F 0 "#PWR4" H 12700 1950 50  0001 C CNN
F 1 "GND" H 12700 2050 50  0000 C CNN
F 2 "" H 12700 2200 50  0001 C CNN
F 3 "" H 12700 2200 50  0001 C CNN
	1    12700 2200
	1    0    0    -1  
$EndComp
$Comp
L GND #PWR15
U 1 1 5914E6F3
P 12700 7900
F 0 "#PWR15" H 12700 7650 50  0001 C CNN
F 1 "GND" H 12700 7750 50  0000 C CNN
F 2 "" H 12700 7900 50  0001 C CNN
F 3 "" H 12700 7900 50  0001 C CNN
	1    12700 7900
	1    0    0    -1  
$EndComp
$Comp
L LED_PAD LED8
U 1 1 5915250A
P 12700 3750
F 0 "LED8" H 12700 3975 50  0000 C CNN
F 1 "LED_PAD" H 12700 3900 50  0001 C CNN
F 2 "" H 12700 3750 50  0000 C CNN
F 3 "" H 12700 3750 50  0000 C CNN
	1    12700 3750
	-1   0    0    -1  
$EndComp
$Comp
L LED_PAD LED9
U 1 1 59152510
P 13050 3750
F 0 "LED9" H 13050 3975 50  0000 C CNN
F 1 "LED_PAD" H 13050 3900 50  0001 C CNN
F 2 "" H 13050 3750 50  0000 C CNN
F 3 "" H 13050 3750 50  0000 C CNN
	1    13050 3750
	-1   0    0    -1  
$EndComp
$Comp
L LED_PAD LED10
U 1 1 59152516
P 13400 3750
F 0 "LED10" H 13400 3975 50  0000 C CNN
F 1 "LED_PAD" H 13400 3900 50  0001 C CNN
F 2 "" H 13400 3750 50  0000 C CNN
F 3 "" H 13400 3750 50  0000 C CNN
	1    13400 3750
	-1   0    0    -1  
$EndComp
$Comp
L LED_PAD LED11
U 1 1 5915251C
P 13750 3750
F 0 "LED11" H 13750 3975 50  0000 C CNN
F 1 "LED_PAD" H 13750 3900 50  0001 C CNN
F 2 "" H 13750 3750 50  0000 C CNN
F 3 "" H 13750 3750 50  0000 C CNN
	1    13750 3750
	-1   0    0    -1  
$EndComp
$Comp
L LED_PAD LED12
U 1 1 59152522
P 14100 3750
F 0 "LED12" H 14100 3975 50  0000 C CNN
F 1 "LED_PAD" H 14100 3900 50  0001 C CNN
F 2 "" H 14100 3750 50  0000 C CNN
F 3 "" H 14100 3750 50  0000 C CNN
	1    14100 3750
	-1   0    0    -1  
$EndComp
$Comp
L LED_PAD LED13
U 1 1 59152528
P 14450 3750
F 0 "LED13" H 14450 3975 50  0000 C CNN
F 1 "LED_PAD" H 14450 3900 50  0001 C CNN
F 2 "" H 14450 3750 50  0000 C CNN
F 3 "" H 14450 3750 50  0000 C CNN
	1    14450 3750
	-1   0    0    -1  
$EndComp
$Comp
L LED_PAD LED14
U 1 1 5915252E
P 14800 3750
F 0 "LED14" H 14800 3975 50  0000 C CNN
F 1 "LED_PAD" H 14800 3900 50  0001 C CNN
F 2 "" H 14800 3750 50  0000 C CNN
F 3 "" H 14800 3750 50  0000 C CNN
	1    14800 3750
	-1   0    0    -1  
$EndComp
$Comp
L GND #PWR8
U 1 1 59152534
P 12700 4100
F 0 "#PWR8" H 12700 3850 50  0001 C CNN
F 1 "GND" H 12700 3950 50  0000 C CNN
F 2 "" H 12700 4100 50  0001 C CNN
F 3 "" H 12700 4100 50  0001 C CNN
	1    12700 4100
	1    0    0    -1  
$EndComp
$Comp
L LED_PAD LED15
U 1 1 59153FFA
P 12700 5650
F 0 "LED15" H 12700 5875 50  0000 C CNN
F 1 "LED_PAD" H 12700 5800 50  0001 C CNN
F 2 "" H 12700 5650 50  0000 C CNN
F 3 "" H 12700 5650 50  0000 C CNN
	1    12700 5650
	-1   0    0    -1  
$EndComp
$Comp
L LED_PAD LED16
U 1 1 59154000
P 13050 5650
F 0 "LED16" H 13050 5875 50  0000 C CNN
F 1 "LED_PAD" H 13050 5800 50  0001 C CNN
F 2 "" H 13050 5650 50  0000 C CNN
F 3 "" H 13050 5650 50  0000 C CNN
	1    13050 5650
	-1   0    0    -1  
$EndComp
$Comp
L LED_PAD LED17
U 1 1 59154006
P 13400 5650
F 0 "LED17" H 13400 5875 50  0000 C CNN
F 1 "LED_PAD" H 13400 5800 50  0001 C CNN
F 2 "" H 13400 5650 50  0000 C CNN
F 3 "" H 13400 5650 50  0000 C CNN
	1    13400 5650
	-1   0    0    -1  
$EndComp
$Comp
L LED_PAD LED18
U 1 1 5915400C
P 13750 5650
F 0 "LED18" H 13750 5875 50  0000 C CNN
F 1 "LED_PAD" H 13750 5800 50  0001 C CNN
F 2 "" H 13750 5650 50  0000 C CNN
F 3 "" H 13750 5650 50  0000 C CNN
	1    13750 5650
	-1   0    0    -1  
$EndComp
$Comp
L LED_PAD LED19
U 1 1 59154012
P 14100 5650
F 0 "LED19" H 14100 5875 50  0000 C CNN
F 1 "LED_PAD" H 14100 5800 50  0001 C CNN
F 2 "" H 14100 5650 50  0000 C CNN
F 3 "" H 14100 5650 50  0000 C CNN
	1    14100 5650
	-1   0    0    -1  
$EndComp
$Comp
L LED_PAD LED20
U 1 1 59154018
P 14450 5650
F 0 "LED20" H 14450 5875 50  0000 C CNN
F 1 "LED_PAD" H 14450 5800 50  0001 C CNN
F 2 "" H 14450 5650 50  0000 C CNN
F 3 "" H 14450 5650 50  0000 C CNN
	1    14450 5650
	-1   0    0    -1  
$EndComp
$Comp
L LED_PAD LED21
U 1 1 5915401E
P 14800 5650
F 0 "LED21" H 14800 5875 50  0000 C CNN
F 1 "LED_PAD" H 14800 5800 50  0001 C CNN
F 2 "" H 14800 5650 50  0000 C CNN
F 3 "" H 14800 5650 50  0000 C CNN
	1    14800 5650
	-1   0    0    -1  
$EndComp
$Comp
L GND #PWR12
U 1 1 59154024
P 12700 6000
F 0 "#PWR12" H 12700 5750 50  0001 C CNN
F 1 "GND" H 12700 5850 50  0000 C CNN
F 2 "" H 12700 6000 50  0001 C CNN
F 3 "" H 12700 6000 50  0001 C CNN
	1    12700 6000
	1    0    0    -1  
$EndComp
$Comp
L Q_NMOS_DGS Q2
U 1 1 5915AD86
P 2700 9800
F 0 "Q2" H 2900 9850 50  0000 L CNN
F 1 "Q_NMOS_DGS" H 2900 9750 50  0000 L CNN
F 2 "" H 2900 9900 50  0001 C CNN
F 3 "" H 2700 9800 50  0001 C CNN
	1    2700 9800
	1    0    0    -1  
$EndComp
Wire Wire Line
	5600 1300 7000 1300
Wire Wire Line
	5600 1400 7000 1400
Wire Wire Line
	5600 1500 6350 1500
Wire Wire Line
	5600 1600 6650 1600
Wire Wire Line
	5950 1600 5950 1700
Wire Wire Line
	5950 1300 5950 1200
Wire Wire Line
	10300 8250 10300 8450
Wire Wire Line
	9500 8350 10550 8350
Connection ~ 10300 8350
Wire Wire Line
	10700 7850 10800 7850
Wire Wire Line
	10300 7950 10300 7850
Wire Wire Line
	10200 7850 10400 7850
Connection ~ 10300 7850
Wire Wire Line
	9800 7850 9900 7850
Wire Wire Line
	9500 8350 9500 8250
Wire Wire Line
	9500 7500 9500 7950
Wire Wire Line
	9500 7550 10800 7550
Connection ~ 9500 7550
Wire Wire Line
	9500 7200 9500 7150
Wire Wire Line
	11450 7050 11700 7050
Wire Wire Line
	12000 7050 13500 7050
Wire Wire Line
	12500 7050 12500 7550
Wire Wire Line
	12400 7550 12550 7550
Connection ~ 12500 7550
Wire Wire Line
	12400 8150 13400 8150
Wire Wire Line
	15000 8150 13700 8150
Wire Wire Line
	15000 7050 15000 8150
Wire Wire Line
	15000 7550 14950 7550
Connection ~ 12500 7050
Wire Wire Line
	13800 7050 15000 7050
Connection ~ 15000 7550
Wire Wire Line
	11750 8500 12500 8500
Wire Wire Line
	12500 8500 12500 8150
Connection ~ 12500 8150
Wire Wire Line
	10750 8500 11450 8500
Wire Wire Line
	10750 7050 10750 8500
Connection ~ 10750 7550
Wire Wire Line
	10550 8350 10550 8150
Wire Wire Line
	10550 8150 10800 8150
Wire Wire Line
	10750 7050 11150 7050
Wire Notes Line
	15100 1150 15100 8750
Wire Notes Line
	15100 8750 9300 8750
Wire Notes Line
	9300 8750 9300 1150
Wire Notes Line
	9300 6850 15100 6850
Wire Wire Line
	10300 6350 10300 6550
Wire Wire Line
	9500 6450 10550 6450
Connection ~ 10300 6450
Wire Wire Line
	10700 5950 10800 5950
Wire Wire Line
	10300 6050 10300 5950
Wire Wire Line
	10200 5950 10400 5950
Connection ~ 10300 5950
Wire Wire Line
	9800 5950 9900 5950
Wire Wire Line
	9500 6450 9500 6350
Wire Wire Line
	9500 5600 9500 6050
Wire Wire Line
	9500 5650 10800 5650
Connection ~ 9500 5650
Wire Wire Line
	9500 5300 9500 5250
Wire Wire Line
	11450 5150 11700 5150
Wire Wire Line
	12000 5150 13500 5150
Wire Wire Line
	12500 5150 12500 5650
Wire Wire Line
	12400 5650 12550 5650
Connection ~ 12500 5650
Wire Wire Line
	12400 6250 13400 6250
Wire Wire Line
	15000 6250 13700 6250
Wire Wire Line
	15000 5150 15000 6250
Wire Wire Line
	15000 5650 14950 5650
Connection ~ 12500 5150
Wire Wire Line
	13800 5150 15000 5150
Connection ~ 15000 5650
Wire Wire Line
	11750 6600 12500 6600
Wire Wire Line
	12500 6600 12500 6250
Connection ~ 12500 6250
Wire Wire Line
	10750 6600 11450 6600
Wire Wire Line
	10750 5150 10750 6600
Connection ~ 10750 5650
Wire Wire Line
	10550 6450 10550 6250
Wire Wire Line
	10550 6250 10800 6250
Wire Wire Line
	10750 5150 11150 5150
Wire Notes Line
	9300 4950 15100 4950
Wire Wire Line
	10300 4450 10300 4650
Wire Wire Line
	9500 4550 10550 4550
Connection ~ 10300 4550
Wire Wire Line
	10700 4050 10800 4050
Wire Wire Line
	10300 4150 10300 4050
Wire Wire Line
	10200 4050 10400 4050
Connection ~ 10300 4050
Wire Wire Line
	9800 4050 9900 4050
Wire Wire Line
	9500 4550 9500 4450
Wire Wire Line
	9500 3350 9500 4150
Wire Wire Line
	9500 3750 10800 3750
Connection ~ 9500 3750
Wire Wire Line
	11450 3250 11700 3250
Wire Wire Line
	12000 3250 13500 3250
Wire Wire Line
	12500 3250 12500 3750
Wire Wire Line
	12400 3750 12550 3750
Connection ~ 12500 3750
Wire Wire Line
	12400 4350 13400 4350
Wire Wire Line
	15000 4350 13700 4350
Wire Wire Line
	15000 3250 15000 4350
Wire Wire Line
	15000 3750 14950 3750
Connection ~ 12500 3250
Wire Wire Line
	13800 3250 15000 3250
Connection ~ 15000 3750
Wire Wire Line
	11750 4700 12500 4700
Wire Wire Line
	12500 4700 12500 4350
Connection ~ 12500 4350
Wire Wire Line
	10750 4700 11450 4700
Wire Wire Line
	10750 3250 10750 4700
Connection ~ 10750 3750
Wire Wire Line
	10550 4550 10550 4350
Wire Wire Line
	10550 4350 10800 4350
Wire Wire Line
	10750 3250 11150 3250
Wire Notes Line
	9300 3050 15100 3050
Wire Wire Line
	10300 2550 10300 2750
Wire Wire Line
	9500 2650 10550 2650
Connection ~ 10300 2650
Wire Wire Line
	10700 2150 10800 2150
Wire Wire Line
	10300 2250 10300 2150
Wire Wire Line
	10200 2150 10400 2150
Connection ~ 10300 2150
Wire Wire Line
	9800 2150 9900 2150
Wire Wire Line
	9500 2650 9500 2550
Wire Wire Line
	9500 1800 9500 2250
Wire Wire Line
	9500 1850 10800 1850
Connection ~ 9500 1850
Wire Wire Line
	9500 1500 9500 1450
Wire Wire Line
	11450 1350 11700 1350
Wire Wire Line
	12000 1350 13500 1350
Wire Wire Line
	12500 1350 12500 1850
Wire Wire Line
	12400 1850 12550 1850
Connection ~ 12500 1850
Wire Wire Line
	12400 2450 13400 2450
Wire Wire Line
	15000 2450 13700 2450
Wire Wire Line
	15000 1350 15000 2450
Wire Wire Line
	15000 1850 14950 1850
Connection ~ 12500 1350
Wire Wire Line
	13800 1350 15000 1350
Connection ~ 15000 1850
Wire Wire Line
	11750 2800 12500 2800
Wire Wire Line
	12500 2800 12500 2450
Connection ~ 12500 2450
Wire Wire Line
	10750 2800 11450 2800
Wire Wire Line
	10750 1350 10750 2800
Connection ~ 10750 1850
Wire Wire Line
	10550 2650 10550 2450
Wire Wire Line
	10550 2450 10800 2450
Wire Wire Line
	10750 1350 11150 1350
Wire Notes Line
	9300 1150 15100 1150
Connection ~ 5950 1300
Wire Wire Line
	6300 1800 6300 1400
Connection ~ 6300 1400
Connection ~ 5950 1600
Wire Wire Line
	2350 3050 2150 3050
Wire Wire Line
	2150 3050 2150 2750
Wire Wire Line
	1300 2750 2350 2750
Wire Wire Line
	1900 2800 1900 2750
Connection ~ 2150 2750
Wire Wire Line
	1600 2800 1600 2750
Connection ~ 1900 2750
Wire Wire Line
	1300 2600 1300 2800
Connection ~ 1600 2750
Connection ~ 1300 2750
Wire Wire Line
	3950 3750 4100 3750
Wire Wire Line
	4100 3750 4100 4200
Wire Wire Line
	5950 4100 1300 4100
Wire Wire Line
	1300 4100 1300 3100
Connection ~ 4100 4100
Wire Wire Line
	1300 3250 1900 3250
Wire Wire Line
	1900 3250 1900 3100
Connection ~ 1300 3250
Wire Wire Line
	1600 3100 1600 3250
Connection ~ 1600 3250
Wire Wire Line
	3950 2750 4100 2750
Wire Wire Line
	3950 3050 4500 3050
Wire Wire Line
	4500 2750 4500 3650
Wire Wire Line
	4400 2750 4600 2750
Connection ~ 4500 2750
Connection ~ 4500 3050
Wire Wire Line
	4500 4100 4500 3950
Wire Wire Line
	4900 2750 6550 2750
Wire Wire Line
	5950 2750 5950 2900
Wire Wire Line
	5200 2900 5200 2750
Connection ~ 5200 2750
Wire Wire Line
	5450 2900 5450 2750
Connection ~ 5450 2750
Wire Wire Line
	5700 2900 5700 2750
Connection ~ 5700 2750
Wire Wire Line
	5950 3200 5950 4100
Connection ~ 4500 4100
Wire Wire Line
	5200 3200 5200 3300
Wire Wire Line
	5200 3300 6500 3300
Connection ~ 5950 3300
Wire Wire Line
	5700 3300 5700 3200
Connection ~ 5700 3300
Wire Wire Line
	5450 3200 5450 3300
Connection ~ 5450 3300
Connection ~ 5950 2750
Wire Wire Line
	6300 2900 6300 2750
Connection ~ 6300 2750
Wire Wire Line
	6300 3300 6300 3200
Wire Wire Line
	6500 3300 6500 2850
Wire Wire Line
	6500 2850 6550 2850
Connection ~ 6300 3300
Wire Wire Line
	5000 2950 5000 2750
Connection ~ 5000 2750
Wire Wire Line
	3950 3350 5000 3350
Wire Wire Line
	5000 3250 5000 3450
Connection ~ 5000 3350
Wire Wire Line
	5000 3750 5000 4100
Connection ~ 5000 4100
Wire Wire Line
	4100 4500 4100 4600
Wire Wire Line
	6650 1500 7000 1500
Wire Wire Line
	6950 1600 7000 1600
Wire Wire Line
	12850 1850 12900 1850
Wire Wire Line
	13200 1850 13250 1850
Wire Wire Line
	13550 1850 13600 1850
Wire Wire Line
	13900 1850 13950 1850
Wire Wire Line
	14250 1850 14300 1850
Wire Wire Line
	14600 1850 14650 1850
Wire Wire Line
	12700 2050 12700 2200
Wire Wire Line
	12700 2100 14800 2100
Wire Wire Line
	14800 2100 14800 2050
Wire Wire Line
	14450 2100 14450 2050
Connection ~ 14450 2100
Wire Wire Line
	14100 2050 14100 2100
Connection ~ 14100 2100
Wire Wire Line
	13750 2050 13750 2100
Connection ~ 13750 2100
Wire Wire Line
	13400 2050 13400 2100
Connection ~ 13400 2100
Wire Wire Line
	13050 2050 13050 2100
Connection ~ 13050 2100
Connection ~ 12700 2100
Wire Wire Line
	12700 7750 12700 7900
Wire Wire Line
	12700 7850 14800 7850
Wire Wire Line
	14800 7850 14800 7750
Connection ~ 12700 7850
Wire Wire Line
	14450 7750 14450 7850
Connection ~ 14450 7850
Wire Wire Line
	14100 7750 14100 7850
Connection ~ 14100 7850
Wire Wire Line
	13750 7750 13750 7850
Connection ~ 13750 7850
Wire Wire Line
	13400 7750 13400 7850
Connection ~ 13400 7850
Wire Wire Line
	13050 7750 13050 7850
Connection ~ 13050 7850
Wire Wire Line
	12850 7550 12900 7550
Wire Wire Line
	13200 7550 13250 7550
Wire Wire Line
	13550 7550 13600 7550
Wire Wire Line
	13900 7550 13950 7550
Wire Wire Line
	14250 7550 14300 7550
Wire Wire Line
	14600 7550 14650 7550
Wire Wire Line
	12700 3950 12700 4100
Wire Wire Line
	12700 4050 14800 4050
Wire Wire Line
	14800 4050 14800 3950
Connection ~ 12700 4050
Wire Wire Line
	14450 3950 14450 4050
Connection ~ 14450 4050
Wire Wire Line
	14100 3950 14100 4050
Connection ~ 14100 4050
Wire Wire Line
	13750 3950 13750 4050
Connection ~ 13750 4050
Wire Wire Line
	13400 3950 13400 4050
Connection ~ 13400 4050
Wire Wire Line
	13050 3950 13050 4050
Connection ~ 13050 4050
Wire Wire Line
	12850 3750 12900 3750
Wire Wire Line
	13200 3750 13250 3750
Wire Wire Line
	13550 3750 13600 3750
Wire Wire Line
	13900 3750 13950 3750
Wire Wire Line
	14250 3750 14300 3750
Wire Wire Line
	14600 3750 14650 3750
Wire Wire Line
	12700 5850 12700 6000
Wire Wire Line
	12700 5950 14800 5950
Wire Wire Line
	14800 5950 14800 5850
Connection ~ 12700 5950
Wire Wire Line
	14450 5850 14450 5950
Connection ~ 14450 5950
Wire Wire Line
	14100 5850 14100 5950
Connection ~ 14100 5950
Wire Wire Line
	13750 5850 13750 5950
Connection ~ 13750 5950
Wire Wire Line
	13400 5850 13400 5950
Connection ~ 13400 5950
Wire Wire Line
	13050 5850 13050 5950
Connection ~ 13050 5950
Wire Wire Line
	12850 5650 12900 5650
Wire Wire Line
	13200 5650 13250 5650
Wire Wire Line
	13550 5650 13600 5650
Wire Wire Line
	13900 5650 13950 5650
Wire Wire Line
	14250 5650 14300 5650
Wire Wire Line
	14600 5650 14650 5650
$Comp
L R R?
U 1 1 59577C5D
P 3050 9550
F 0 "R?" V 3130 9550 50  0000 C CNN
F 1 "0" V 3050 9550 50  0000 C CNN
F 2 "" V 2980 9550 50  0001 C CNN
F 3 "" H 3050 9550 50  0001 C CNN
	1    3050 9550
	0    1    1    0   
$EndComp
$Comp
L GND #PWR?
U 1 1 59577C69
P 2800 10150
F 0 "#PWR?" H 2800 9900 50  0001 C CNN
F 1 "GND" H 2800 10000 50  0000 C CNN
F 2 "" H 2800 10150 50  0001 C CNN
F 3 "" H 2800 10150 50  0001 C CNN
	1    2800 10150
	1    0    0    -1  
$EndComp
Text GLabel 2400 9800 0    60   Input ~ 0
ADJ
$Comp
L R R?
U 1 1 59577C76
P 2000 9050
F 0 "R?" V 2080 9050 50  0000 C CNN
F 1 "0" V 2000 9050 50  0000 C CNN
F 2 "" V 1930 9050 50  0001 C CNN
F 3 "" H 2000 9050 50  0001 C CNN
	1    2000 9050
	-1   0    0    1   
$EndComp
$Comp
L C C?
U 1 1 59577C7C
P 2000 9800
F 0 "C?" H 2025 9900 50  0000 L CNN
F 1 "1uF" H 2025 9700 50  0000 L CNN
F 2 "" H 2038 9650 50  0001 C CNN
F 3 "" H 2000 9800 50  0001 C CNN
	1    2000 9800
	1    0    0    -1  
$EndComp
$Comp
L VAA #PWR?
U 1 1 59577C82
P 2000 8850
F 0 "#PWR?" H 2000 8700 50  0001 C CNN
F 1 "VAA" H 2000 9000 50  0000 C CNN
F 2 "" H 2000 8850 50  0001 C CNN
F 3 "" H 2000 8850 50  0001 C CNN
	1    2000 8850
	1    0    0    -1  
$EndComp
$Comp
L R R?
U 1 1 59577C88
P 3800 8750
F 0 "R?" V 3880 8750 50  0000 C CNN
F 1 "0.27" V 3800 8750 50  0000 C CNN
F 2 "" V 3730 8750 50  0001 C CNN
F 3 "" H 3800 8750 50  0001 C CNN
	1    3800 8750
	0    1    1    0   
$EndComp
$Comp
L R R?
U 1 1 59577C8E
P 4350 8750
F 0 "R?" V 4430 8750 50  0000 C CNN
F 1 "0" V 4350 8750 50  0000 C CNN
F 2 "" V 4280 8750 50  0001 C CNN
F 3 "" H 4350 8750 50  0001 C CNN
	1    4350 8750
	0    1    1    0   
$EndComp
$Comp
L L L?
U 1 1 59577C94
P 6050 9850
F 0 "L?" V 6000 9850 50  0000 C CNN
F 1 "L" V 6125 9850 50  0000 C CNN
F 2 "" H 6050 9850 50  0001 C CNN
F 3 "" H 6050 9850 50  0001 C CNN
	1    6050 9850
	0    -1   -1   0   
$EndComp
$Comp
L C C?
U 1 1 59577C9A
P 6150 8750
F 0 "C?" H 6175 8850 50  0000 L CNN
F 1 "1uF" H 6175 8650 50  0000 L CNN
F 2 "" H 6188 8600 50  0001 C CNN
F 3 "" H 6150 8750 50  0001 C CNN
	1    6150 8750
	0    1    1    0   
$EndComp
$Comp
L D VD?
U 1 1 59577CA0
P 4100 10200
F 0 "VD?" H 4100 10300 50  0000 C CNN
F 1 "D" H 4100 10100 50  0000 C CNN
F 2 "" H 4100 10200 50  0001 C CNN
F 3 "" H 4100 10200 50  0001 C CNN
	1    4100 10200
	1    0    0    -1  
$EndComp
$Comp
L ZXLD1350 DA?
U 1 1 59577CA6
P 4100 9750
F 0 "DA?" H 3600 10500 60  0000 C CNN
F 1 "ZXLD1350" H 4450 10500 60  0000 C CNN
F 2 "DDC0006A_N" H 4100 9690 60  0001 C CNN
F 3 "" H 4100 9750 60  0000 C CNN
	1    4100 9750
	1    0    0    -1  
$EndComp
$Comp
L LED_PAD LED?
U 1 1 59577CAC
P 5200 9250
F 0 "LED?" H 5200 9475 50  0000 C CNN
F 1 "LED_PAD" H 5200 9400 50  0001 C CNN
F 2 "" H 5200 9250 50  0000 C CNN
F 3 "" H 5200 9250 50  0000 C CNN
	1    5200 9250
	-1   0    0    -1  
$EndComp
$Comp
L LED_PAD LED?
U 1 1 59577CB2
P 5550 9250
F 0 "LED?" H 5550 9475 50  0000 C CNN
F 1 "LED_PAD" H 5550 9400 50  0001 C CNN
F 2 "" H 5550 9250 50  0000 C CNN
F 3 "" H 5550 9250 50  0000 C CNN
	1    5550 9250
	-1   0    0    -1  
$EndComp
$Comp
L LED_PAD LED?
U 1 1 59577CB8
P 5900 9250
F 0 "LED?" H 5900 9475 50  0000 C CNN
F 1 "LED_PAD" H 5900 9400 50  0001 C CNN
F 2 "" H 5900 9250 50  0000 C CNN
F 3 "" H 5900 9250 50  0000 C CNN
	1    5900 9250
	-1   0    0    -1  
$EndComp
$Comp
L LED_PAD LED?
U 1 1 59577CBE
P 6250 9250
F 0 "LED?" H 6250 9475 50  0000 C CNN
F 1 "LED_PAD" H 6250 9400 50  0001 C CNN
F 2 "" H 6250 9250 50  0000 C CNN
F 3 "" H 6250 9250 50  0000 C CNN
	1    6250 9250
	-1   0    0    -1  
$EndComp
$Comp
L LED_PAD LED?
U 1 1 59577CC4
P 6600 9250
F 0 "LED?" H 6600 9475 50  0000 C CNN
F 1 "LED_PAD" H 6600 9400 50  0001 C CNN
F 2 "" H 6600 9250 50  0000 C CNN
F 3 "" H 6600 9250 50  0000 C CNN
	1    6600 9250
	-1   0    0    -1  
$EndComp
$Comp
L LED_PAD LED?
U 1 1 59577CCA
P 6950 9250
F 0 "LED?" H 6950 9475 50  0000 C CNN
F 1 "LED_PAD" H 6950 9400 50  0001 C CNN
F 2 "" H 6950 9250 50  0000 C CNN
F 3 "" H 6950 9250 50  0000 C CNN
	1    6950 9250
	-1   0    0    -1  
$EndComp
$Comp
L LED_PAD LED?
U 1 1 59577CD0
P 7300 9250
F 0 "LED?" H 7300 9475 50  0000 C CNN
F 1 "LED_PAD" H 7300 9400 50  0001 C CNN
F 2 "" H 7300 9250 50  0000 C CNN
F 3 "" H 7300 9250 50  0000 C CNN
	1    7300 9250
	-1   0    0    -1  
$EndComp
$Comp
L GND #PWR?
U 1 1 59577CD6
P 5200 9600
F 0 "#PWR?" H 5200 9350 50  0001 C CNN
F 1 "GND" H 5200 9450 50  0000 C CNN
F 2 "" H 5200 9600 50  0001 C CNN
F 3 "" H 5200 9600 50  0001 C CNN
	1    5200 9600
	1    0    0    -1  
$EndComp
Wire Wire Line
	2800 10000 2800 10150
Wire Wire Line
	2000 10050 3050 10050
Connection ~ 2800 10050
Wire Wire Line
	3200 9550 3300 9550
Wire Wire Line
	2000 10050 2000 9950
Wire Wire Line
	2000 9200 2000 9650
Wire Wire Line
	2000 9250 3300 9250
Connection ~ 2000 9250
Wire Wire Line
	2000 8900 2000 8850
Wire Wire Line
	3950 8750 4200 8750
Wire Wire Line
	4500 8750 6000 8750
Wire Wire Line
	5000 8750 5000 9250
Wire Wire Line
	4900 9250 5050 9250
Connection ~ 5000 9250
Wire Wire Line
	4900 9850 5900 9850
Wire Wire Line
	7500 9850 6200 9850
Wire Wire Line
	7500 8750 7500 9850
Wire Wire Line
	7500 9250 7450 9250
Connection ~ 5000 8750
Wire Wire Line
	6300 8750 7500 8750
Connection ~ 7500 9250
Wire Wire Line
	4250 10200 5000 10200
Wire Wire Line
	5000 10200 5000 9850
Connection ~ 5000 9850
Wire Wire Line
	3250 10200 3950 10200
Wire Wire Line
	3250 8750 3250 10200
Connection ~ 3250 9250
Wire Wire Line
	3050 10050 3050 9850
Wire Wire Line
	3050 9850 3300 9850
Wire Wire Line
	3250 8750 3650 8750
Wire Notes Line
	1800 10450 7650 10450
Wire Wire Line
	5200 9450 5200 9600
Wire Wire Line
	5200 9550 7300 9550
Wire Wire Line
	7300 9550 7300 9450
Connection ~ 5200 9550
Wire Wire Line
	6950 9450 6950 9550
Connection ~ 6950 9550
Wire Wire Line
	6600 9450 6600 9550
Connection ~ 6600 9550
Wire Wire Line
	6250 9450 6250 9550
Connection ~ 6250 9550
Wire Wire Line
	5900 9450 5900 9550
Connection ~ 5900 9550
Wire Wire Line
	5550 9450 5550 9550
Connection ~ 5550 9550
Wire Wire Line
	5350 9250 5400 9250
Wire Wire Line
	5700 9250 5750 9250
Wire Wire Line
	6050 9250 6100 9250
Wire Wire Line
	6400 9250 6450 9250
Wire Wire Line
	6750 9250 6800 9250
Wire Wire Line
	7100 9250 7150 9250
Wire Notes Line
	7650 10450 7650 8500
Wire Notes Line
	7650 8500 1800 8500
Wire Notes Line
	1800 8500 1800 10450
Wire Wire Line
	2800 9600 2800 9550
Wire Wire Line
	2800 9550 2900 9550
Wire Wire Line
	2400 9800 2500 9800
$EndSCHEMATC
