EESchema Schematic File Version 4
LIBS:proj-cache
EELAYER 26 0
EELAYER END
$Descr A4 11693 8268
encoding utf-8
Sheet 1 1
Title "Плата управления"
Date "2019-01-11"
Rev "33"
Comp "ИТМО"
Comment1 ""
Comment2 "Модин М.А."
Comment3 ""
Comment4 ""
$EndDescr
$Comp
L power:GND #PWR01
U 1 1 584937B6
P 3800 3150
F 0 "#PWR01" H 3800 2900 50  0001 C CNN
F 1 "GND" H 3800 3000 50  0000 C CNN
F 2 "" H 3800 3150 50  0000 C CNN
F 3 "" H 3800 3150 50  0000 C CNN
	1    3800 3150
	1    0    0    -1  
$EndComp
$Comp
L Device:Speaker SP1
U 1 1 58493D8D
P 1050 5050
F 0 "SP1" H 950 5300 50  0000 C CNN
F 1 "SPEAKER" H 950 4800 50  0000 C CNN
F 2 "footprints:pkm13epyh4000" H 1050 5050 50  0001 C CNN
F 3 "" H 1050 5050 50  0000 C CNN
	1    1050 5050
	-1   0    0    -1  
$EndComp
$Comp
L Device:R R6
U 1 1 58624B8F
P 2200 4950
F 0 "R6" V 2280 4950 50  0000 C CNN
F 1 "100k" V 2200 4950 50  0000 C CNN
F 2 "Resistor_SMD:R_0603_1608Metric" V 2130 4950 50  0001 C CNN
F 3 "" H 2200 4950 50  0000 C CNN
	1    2200 4950
	-1   0    0    1   
$EndComp
$Comp
L power:+3V3 #PWR02
U 1 1 58864B6D
P 3800 2400
F 0 "#PWR02" H 3800 2250 50  0001 C CNN
F 1 "+3V3" H 3800 2540 50  0000 C CNN
F 2 "" H 3800 2400 50  0000 C CNN
F 3 "" H 3800 2400 50  0000 C CNN
	1    3800 2400
	1    0    0    -1  
$EndComp
$Comp
L power:+3V3 #PWR03
U 1 1 588661F4
P 3550 4350
F 0 "#PWR03" H 3550 4200 50  0001 C CNN
F 1 "+3V3" H 3550 4490 50  0000 C CNN
F 2 "" H 3550 4350 50  0000 C CNN
F 3 "" H 3550 4350 50  0000 C CNN
	1    3550 4350
	1    0    0    -1  
$EndComp
$Comp
L power:VCC #PWR04
U 1 1 58868E1F
P 2600 2400
F 0 "#PWR04" H 2600 2250 50  0001 C CNN
F 1 "VCC" H 2600 2550 50  0000 C CNN
F 2 "" H 2600 2400 50  0000 C CNN
F 3 "" H 2600 2400 50  0000 C CNN
	1    2600 2400
	1    0    0    -1  
$EndComp
$Comp
L Device:C C25
U 1 1 5880FE4C
P 10600 4400
F 0 "C25" V 10450 4200 50  0000 L CNN
F 1 "1.5pF" V 10450 4400 50  0000 L CNN
F 2 "Capacitor_SMD:C_0603_1608Metric" H 10638 4250 50  0001 C CNN
F 3 "" H 10600 4400 50  0000 C CNN
	1    10600 4400
	0    1    1    0   
$EndComp
$Comp
L Device:C C26
U 1 1 5880F78C
P 10800 4600
F 0 "C26" H 10950 4650 50  0000 L CNN
F 1 "1.2pF" H 10950 4550 50  0000 L CNN
F 2 "Capacitor_SMD:C_0603_1608Metric" H 10838 4450 50  0001 C CNN
F 3 "" H 10800 4600 50  0000 C CNN
	1    10800 4600
	1    0    0    -1  
$EndComp
$Comp
L power:GND #PWR05
U 1 1 58809BC6
P 8750 6100
F 0 "#PWR05" H 8750 5850 50  0001 C CNN
F 1 "GND" H 8750 5950 50  0000 C CNN
F 2 "" H 8750 6100 50  0000 C CNN
F 3 "" H 8750 6100 50  0000 C CNN
	1    8750 6100
	1    0    0    -1  
$EndComp
$Comp
L Device:C C20
U 1 1 588097EC
P 8750 5800
F 0 "C20" H 8775 5900 50  0000 L CNN
F 1 "12pF" H 8775 5700 50  0000 L CNN
F 2 "Capacitor_SMD:C_0603_1608Metric" H 8788 5650 50  0001 C CNN
F 3 "" H 8750 5800 50  0000 C CNN
	1    8750 5800
	1    0    0    -1  
$EndComp
$Comp
L Device:C C21
U 1 1 58809745
P 9000 5800
F 0 "C21" H 9025 5900 50  0000 L CNN
F 1 "12pF" H 9025 5700 50  0000 L CNN
F 2 "Capacitor_SMD:C_0603_1608Metric" H 9038 5650 50  0001 C CNN
F 3 "" H 9000 5800 50  0000 C CNN
	1    9000 5800
	1    0    0    -1  
$EndComp
$Comp
L power:GND #PWR06
U 1 1 58808DC4
P 10800 4900
F 0 "#PWR06" H 10800 4650 50  0001 C CNN
F 1 "GND" H 10800 4750 50  0000 C CNN
F 2 "" H 10800 4900 50  0000 C CNN
F 3 "" H 10800 4900 50  0000 C CNN
	1    10800 4900
	1    0    0    -1  
$EndComp
$Comp
L power:GND #PWR07
U 1 1 58811CD3
P 2100 6450
F 0 "#PWR07" H 2100 6200 50  0001 C CNN
F 1 "GND" H 2100 6300 50  0000 C CNN
F 2 "" H 2100 6450 50  0000 C CNN
F 3 "" H 2100 6450 50  0000 C CNN
	1    2100 6450
	1    0    0    -1  
$EndComp
$Comp
L Device:C C11
U 1 1 58811DC8
P 2600 6100
F 0 "C11" H 2625 6200 50  0000 L CNN
F 1 "0.1uF" H 2625 6000 50  0000 L CNN
F 2 "Capacitor_SMD:C_0603_1608Metric" H 2638 5950 50  0001 C CNN
F 3 "" H 2600 6100 50  0000 C CNN
	1    2600 6100
	-1   0    0    1   
$EndComp
$Comp
L Device:C C12
U 1 1 58811EA7
P 2350 6100
F 0 "C12" H 2375 6200 50  0000 L CNN
F 1 "0.1uF" H 2375 6000 50  0000 L CNN
F 2 "Capacitor_SMD:C_0603_1608Metric" H 2388 5950 50  0001 C CNN
F 3 "" H 2350 6100 50  0000 C CNN
	1    2350 6100
	-1   0    0    1   
$EndComp
$Comp
L Device:C C13
U 1 1 58811F2D
P 2100 6100
F 0 "C13" H 2125 6200 50  0000 L CNN
F 1 "0.1uF" H 2125 6000 50  0000 L CNN
F 2 "Capacitor_SMD:C_0603_1608Metric" H 2138 5950 50  0001 C CNN
F 3 "" H 2100 6100 50  0000 C CNN
	1    2100 6100
	-1   0    0    1   
$EndComp
$Comp
L Device:C C10
U 1 1 58811FD4
P 2850 6100
F 0 "C10" H 2875 6200 50  0000 L CNN
F 1 "1uF" H 2875 6000 50  0000 L CNN
F 2 "Capacitor_SMD:C_0603_1608Metric" H 2888 5950 50  0001 C CNN
F 3 "" H 2850 6100 50  0000 C CNN
	1    2850 6100
	-1   0    0    1   
$EndComp
$Comp
L Device:C C9
U 1 1 58812110
P 3100 6100
F 0 "C9" H 3125 6200 50  0000 L CNN
F 1 "1uF" H 3125 6000 50  0000 L CNN
F 2 "Capacitor_SMD:C_0603_1608Metric" H 3138 5950 50  0001 C CNN
F 3 "" H 3100 6100 50  0000 C CNN
	1    3100 6100
	-1   0    0    1   
$EndComp
$Comp
L Device:C C8
U 1 1 58812203
P 3350 6100
F 0 "C8" H 3375 6200 50  0000 L CNN
F 1 "1uF" H 3375 6000 50  0000 L CNN
F 2 "Capacitor_SMD:C_0603_1608Metric" H 3388 5950 50  0001 C CNN
F 3 "" H 3350 6100 50  0000 C CNN
	1    3350 6100
	-1   0    0    1   
$EndComp
$Comp
L power:GND #PWR08
U 1 1 58810BEC
P 5600 4900
F 0 "#PWR08" H 5600 4650 50  0001 C CNN
F 1 "GND" H 5600 4750 50  0000 C CNN
F 2 "" H 5600 4900 50  0000 C CNN
F 3 "" H 5600 4900 50  0000 C CNN
	1    5600 4900
	1    0    0    -1  
$EndComp
$Comp
L Device:C C24
U 1 1 58810975
P 5600 4500
F 0 "C24" H 5625 4600 50  0000 L CNN
F 1 "0.1uF" H 5625 4400 50  0000 L CNN
F 2 "Capacitor_SMD:C_0603_1608Metric" H 5638 4350 50  0001 C CNN
F 3 "" H 5600 4500 50  0000 C CNN
	1    5600 4500
	1    0    0    -1  
$EndComp
$Comp
L MCU_Cypress:CY8C4247LQI-BL483 U5
U 1 1 58808989
P 8750 3400
F 0 "U5" H 8750 3800 50  0000 C CNN
F 1 "CY8C4248LQI-BL583" H 8750 3500 50  0000 C CNN
F 2 "Package_DFN_QFN:QFN-56-1EP_7x7mm_P0.4mm_EP5.7x5.7mm" H 8750 3400 50  0001 C CNN
F 3 "DOCUMENTATION" H 8800 3300 50  0001 C CNN
	1    8750 3400
	1    0    0    -1  
$EndComp
$Comp
L power:GND #PWR09
U 1 1 5862202A
P 1950 5250
F 0 "#PWR09" H 1950 5000 50  0001 C CNN
F 1 "GND" H 1950 5100 50  0000 C CNN
F 2 "" H 1950 5250 50  0000 C CNN
F 3 "" H 1950 5250 50  0000 C CNN
	1    1950 5250
	1    0    0    -1  
$EndComp
$Comp
L power:GND #PWR010
U 1 1 5888822F
P 4600 1450
F 0 "#PWR010" H 4600 1200 50  0001 C CNN
F 1 "GND" H 4600 1300 50  0000 C CNN
F 2 "" H 4600 1450 50  0000 C CNN
F 3 "" H 4600 1450 50  0000 C CNN
	1    4600 1450
	1    0    0    -1  
$EndComp
$Comp
L Device:C C1
U 1 1 58861D7E
P 2100 2900
F 0 "C1" H 2125 3000 50  0000 L CNN
F 1 "0.1uF" H 2100 2800 50  0000 L CNN
F 2 "Capacitor_SMD:C_0603_1608Metric" H 2138 2750 50  0001 C CNN
F 3 "" H 2100 2900 50  0000 C CNN
	1    2100 2900
	1    0    0    -1  
$EndComp
$Comp
L Device:C C5
U 1 1 58861F65
P 3800 2850
F 0 "C5" H 3650 2750 50  0000 L CNN
F 1 "0.1uF" H 3600 2950 50  0000 L CNN
F 2 "Capacitor_SMD:C_0603_1608Metric" H 3838 2700 50  0001 C CNN
F 3 "" H 3800 2850 50  0000 C CNN
	1    3800 2850
	1    0    0    -1  
$EndComp
$Comp
L power:VCC #PWR011
U 1 1 58874307
P 1450 3650
F 0 "#PWR011" H 1450 3500 50  0001 C CNN
F 1 "VCC" H 1450 3800 50  0000 C CNN
F 2 "" H 1450 3650 50  0000 C CNN
F 3 "" H 1450 3650 50  0000 C CNN
	1    1450 3650
	1    0    0    -1  
$EndComp
$Comp
L Device:Crystal_Small Y2
U 1 1 58887E43
P 9250 5400
F 0 "Y2" V 9250 5550 50  0000 C CNN
F 1 "KX-327NHT 32768kHz" V 9250 4900 50  0000 C CNN
F 2 "crystal-geyer_V1_0:3.2X1.5" H 9250 5400 50  0001 C CNN
F 3 "" H 9250 5400 50  0000 C CNN
	1    9250 5400
	0    -1   -1   0   
$EndComp
$Comp
L Device:R R2
U 1 1 58B97DDA
P 1800 4300
F 0 "R2" V 1880 4300 50  0000 C CNN
F 1 "5k" V 1800 4300 50  0000 C CNN
F 2 "Resistor_SMD:R_0603_1608Metric" V 1730 4300 50  0001 C CNN
F 3 "" H 1800 4300 50  0000 C CNN
	1    1800 4300
	-1   0    0    1   
$EndComp
$Comp
L Device:R R4
U 1 1 58B984E7
P 1950 4300
F 0 "R4" V 2030 4300 50  0000 C CNN
F 1 "1k" V 1950 4300 50  0000 C CNN
F 2 "Resistor_SMD:R_0603_1608Metric" V 1880 4300 50  0001 C CNN
F 3 "" H 1950 4300 50  0000 C CNN
	1    1950 4300
	1    0    0    -1  
$EndComp
$Comp
L Device:R R9
U 1 1 58B988D3
P 2850 5150
F 0 "R9" V 2930 5150 50  0000 C CNN
F 1 "5k" V 2850 5150 50  0000 C CNN
F 2 "Resistor_SMD:R_0603_1608Metric" V 2780 5150 50  0001 C CNN
F 3 "" H 2850 5150 50  0000 C CNN
	1    2850 5150
	0    -1   -1   0   
$EndComp
$Comp
L Connector_Generic:Conn_02x05_Odd_Even J3
U 1 1 58CC4C86
P 4900 1150
F 0 "J3" H 4900 1450 50  0000 C CNN
F 1 "CONN_02X05" H 4900 850 50  0000 C CNN
F 2 "Connector_PinHeader_1.27mm:PinHeader_2x05_P1.27mm_Vertical" H 4900 -50 50  0001 C CNN
F 3 "" H 4900 -50 50  0001 C CNN
	1    4900 1150
	1    0    0    -1  
$EndComp
$Comp
L Device:C C19
U 1 1 58CFBAC4
P 7800 1600
F 0 "C19" H 7825 1700 50  0000 L CNN
F 1 "1uF" H 7825 1500 50  0000 L CNN
F 2 "Capacitor_SMD:C_0603_1608Metric" H 7838 1450 50  0001 C CNN
F 3 "" H 7800 1600 50  0000 C CNN
	1    7800 1600
	0    1    1    0   
$EndComp
$Comp
L power:GND #PWR012
U 1 1 58CFBC18
P 7500 1650
F 0 "#PWR012" H 7500 1400 50  0001 C CNN
F 1 "GND" H 7500 1500 50  0000 C CNN
F 2 "" H 7500 1650 50  0000 C CNN
F 3 "" H 7500 1650 50  0000 C CNN
	1    7500 1650
	1    0    0    -1  
$EndComp
$Comp
L Device:C C14
U 1 1 58CFEF94
P 1850 6100
F 0 "C14" H 1875 6200 50  0000 L CNN
F 1 "0.1uF" H 1875 6000 50  0000 L CNN
F 2 "Capacitor_SMD:C_0603_1608Metric" H 1888 5950 50  0001 C CNN
F 3 "" H 1850 6100 50  0000 C CNN
	1    1850 6100
	-1   0    0    1   
$EndComp
$Comp
L Device:C C15
U 1 1 58CFF254
P 1600 6100
F 0 "C15" H 1625 6200 50  0000 L CNN
F 1 "0.1uF" H 1625 6000 50  0000 L CNN
F 2 "Capacitor_SMD:C_0603_1608Metric" H 1638 5950 50  0001 C CNN
F 3 "" H 1600 6100 50  0000 C CNN
	1    1600 6100
	-1   0    0    1   
$EndComp
$Comp
L Device:C C16
U 1 1 58CFF25A
P 1350 6100
F 0 "C16" H 1375 6200 50  0000 L CNN
F 1 "0.1uF" H 1375 6000 50  0000 L CNN
F 2 "Capacitor_SMD:C_0603_1608Metric" H 1388 5950 50  0001 C CNN
F 3 "" H 1350 6100 50  0000 C CNN
	1    1350 6100
	-1   0    0    1   
$EndComp
$Comp
L Device:C C17
U 1 1 58CFF260
P 1100 6100
F 0 "C17" H 1125 6200 50  0000 L CNN
F 1 "0.1uF" H 1125 6000 50  0000 L CNN
F 2 "Capacitor_SMD:C_0603_1608Metric" H 1138 5950 50  0001 C CNN
F 3 "" H 1100 6100 50  0000 C CNN
	1    1100 6100
	-1   0    0    1   
$EndComp
$Comp
L Device:C C18
U 1 1 58CFF266
P 850 6100
F 0 "C18" H 875 6200 50  0000 L CNN
F 1 "0.1uF" H 875 6000 50  0000 L CNN
F 2 "Capacitor_SMD:C_0603_1608Metric" H 888 5950 50  0001 C CNN
F 3 "" H 850 6100 50  0000 C CNN
	1    850  6100
	-1   0    0    1   
$EndComp
$Comp
L Device:R R19
U 1 1 58D1B645
P 5150 2450
F 0 "R19" V 5230 2450 50  0000 C CNN
F 1 "1k" V 5150 2450 50  0000 C CNN
F 2 "Resistor_SMD:R_0603_1608Metric" V 5080 2450 50  0001 C CNN
F 3 "" H 5150 2450 50  0001 C CNN
	1    5150 2450
	0    -1   -1   0   
$EndComp
$Comp
L Device:R R18
U 1 1 58D1B9D8
P 5150 2750
F 0 "R18" V 5230 2750 50  0000 C CNN
F 1 "1k" V 5150 2750 50  0000 C CNN
F 2 "Resistor_SMD:R_0603_1608Metric" V 5080 2750 50  0001 C CNN
F 3 "" H 5150 2750 50  0001 C CNN
	1    5150 2750
	0    -1   -1   0   
$EndComp
$Comp
L power:+3V3 #PWR013
U 1 1 58D27B42
P 8450 1100
F 0 "#PWR013" H 8450 950 50  0001 C CNN
F 1 "+3V3" H 8450 1240 50  0000 C CNN
F 2 "" H 8450 1100 50  0000 C CNN
F 3 "" H 8450 1100 50  0000 C CNN
	1    8450 1100
	1    0    0    -1  
$EndComp
$Comp
L power:+3V3 #PWR014
U 1 1 58D28809
P 4600 850
F 0 "#PWR014" H 4600 700 50  0001 C CNN
F 1 "+3V3" H 4600 990 50  0000 C CNN
F 2 "" H 4600 850 50  0000 C CNN
F 3 "" H 4600 850 50  0000 C CNN
	1    4600 850 
	1    0    0    -1  
$EndComp
$Comp
L SN74LVC1G3157:SN74LVC1G3157 U3
U 1 1 58D19819
P 2950 4600
F 0 "U3" H 2950 4850 60  0000 C CNN
F 1 "SN74LVC1G3157" H 2950 4350 60  0000 C CNN
F 2 "Package_TO_SOT_SMD:SOT-23-6" H 3600 4850 60  0001 C CNN
F 3 "" H 2950 4600 60  0000 C CNN
	1    2950 4600
	1    0    0    -1  
$EndComp
Text Label 1150 2450 0    60   ~ 0
+18V
$Comp
L Device:L_Core_Iron L1
U 1 1 58D45114
P 1650 2450
F 0 "L1" V 1600 2450 50  0000 C CNN
F 1 "Bead" V 1760 2450 50  0000 C CNN
F 2 "Inductor_SMD:L_0805_2012Metric" H 1650 2450 50  0001 C CNN
F 3 "" H 1650 2450 50  0001 C CNN
	1    1650 2450
	0    -1   -1   0   
$EndComp
$Comp
L Device:C C4
U 1 1 58D4871D
P 1850 2900
F 0 "C4" H 1750 2800 50  0000 L CNN
F 1 "0.1uF" H 1600 3000 50  0000 L CNN
F 2 "Capacitor_SMD:C_0603_1608Metric" H 1888 2750 50  0001 C CNN
F 3 "" H 1850 2900 50  0000 C CNN
	1    1850 2900
	-1   0    0    1   
$EndComp
$Comp
L Device:C C22
U 1 1 58DCF005
P 9250 5800
F 0 "C22" H 9275 5900 50  0000 L CNN
F 1 "12pF" H 9275 5700 50  0000 L CNN
F 2 "Capacitor_SMD:C_0603_1608Metric" H 9288 5650 50  0001 C CNN
F 3 "" H 9250 5800 50  0000 C CNN
	1    9250 5800
	1    0    0    -1  
$EndComp
$Comp
L Device:C C23
U 1 1 58DCF902
P 9500 5800
F 0 "C23" H 9525 5900 50  0000 L CNN
F 1 "12pF" H 9525 5700 50  0000 L CNN
F 2 "Capacitor_SMD:C_0603_1608Metric" H 9538 5650 50  0001 C CNN
F 3 "" H 9500 5800 50  0000 C CNN
	1    9500 5800
	1    0    0    -1  
$EndComp
$Comp
L Device:R R16
U 1 1 58DD19A2
P 1250 7000
F 0 "R16" V 1150 7000 50  0000 C CNN
F 1 "100" V 1250 7000 50  0000 C CNN
F 2 "Resistor_SMD:R_0603_1608Metric" V 1180 7000 50  0001 C CNN
F 3 "" H 1250 7000 50  0001 C CNN
	1    1250 7000
	0    1    1    0   
$EndComp
$Comp
L Device:R R14
U 1 1 58DD2A4D
P 1250 7100
F 0 "R14" V 1350 7100 50  0000 C CNN
F 1 "100" V 1250 7100 50  0000 C CNN
F 2 "Resistor_SMD:R_0603_1608Metric" V 1180 7100 50  0001 C CNN
F 3 "" H 1250 7100 50  0001 C CNN
	1    1250 7100
	0    1    1    0   
$EndComp
$Comp
L Device:R R17
U 1 1 58DD378D
P 5400 950
F 0 "R17" V 5300 950 50  0000 C CNN
F 1 "100" V 5400 950 50  0000 C CNN
F 2 "Resistor_SMD:R_0603_1608Metric" V 5330 950 50  0001 C CNN
F 3 "" H 5400 950 50  0001 C CNN
	1    5400 950 
	0    1    1    0   
$EndComp
$Comp
L Device:R R15
U 1 1 58DD3E1E
P 5400 1050
F 0 "R15" V 5500 1050 50  0000 C CNN
F 1 "100" V 5400 1050 50  0000 C CNN
F 2 "Resistor_SMD:R_0603_1608Metric" V 5330 1050 50  0001 C CNN
F 3 "" H 5400 1050 50  0001 C CNN
	1    5400 1050
	0    1    1    0   
$EndComp
$Comp
L Regulator_Linear:L78L33_SOT89 U2
U 1 1 58DD9367
P 3300 2450
F 0 "U2" H 3100 2250 50  0000 C CNN
F 1 "L78L33ABUTR" H 3050 2650 50  0000 L CNN
F 2 "Package_TO_SOT_SMD:SOT-89-3" H 3300 2550 50  0001 C CIN
F 3 "" H 3300 2450 50  0001 C CNN
	1    3300 2450
	1    0    0    -1  
$EndComp
$Comp
L power:+3V3 #PWR015
U 1 1 58E3F84B
P 2100 5750
F 0 "#PWR015" H 2100 5600 50  0001 C CNN
F 1 "+3V3" H 2100 5890 50  0000 C CNN
F 2 "" H 2100 5750 50  0000 C CNN
F 3 "" H 2100 5750 50  0000 C CNN
	1    2100 5750
	1    0    0    -1  
$EndComp
$Comp
L Device:Antenna_Loop AE1
U 1 1 58EB3EDE
P 10900 4100
F 0 "AE1" H 10950 4350 50  0000 C CNN
F 1 "Antenna_Loop" H 10950 4300 50  0000 C CNN
F 2 "footprints:TI_DN007_2.4GHz" H 10900 4100 50  0001 C CNN
F 3 "" H 10900 4100 50  0001 C CNN
	1    10900 4100
	-1   0    0    -1  
$EndComp
Text GLabel 3600 5150 2    60   Input ~ 0
SA
Text GLabel 3600 4500 2    60   Input ~ 0
SP
Text GLabel 10450 3500 1    60   Input ~ 0
SP
Text GLabel 10600 3500 1    60   Input ~ 0
SA
$Comp
L power:GND #PWR016
U 1 1 58EDD053
P 6000 3150
F 0 "#PWR016" H 6000 2900 50  0001 C CNN
F 1 "GND" H 6000 3000 50  0000 C CNN
F 2 "" H 6000 3150 50  0000 C CNN
F 3 "" H 6000 3150 50  0000 C CNN
	1    6000 3150
	1    0    0    -1  
$EndComp
$Comp
L power:+3V3 #PWR017
U 1 1 58EDDDE2
P 4950 2000
F 0 "#PWR017" H 4950 1850 50  0001 C CNN
F 1 "+3V3" H 4950 2140 50  0000 C CNN
F 2 "" H 4950 2000 50  0000 C CNN
F 3 "" H 4950 2000 50  0000 C CNN
	1    4950 2000
	1    0    0    -1  
$EndComp
Text GLabel 4750 2750 0    60   Input ~ 0
LC1
Text GLabel 10300 3500 1    60   Input ~ 0
LC1
Text GLabel 7200 4100 0    60   Input ~ 0
IN
Text GLabel 7150 4650 3    60   Input ~ 0
OUT_1
Text GLabel 7200 2400 1    60   Input ~ 0
RX
Text GLabel 7050 2400 1    60   Input ~ 0
TX
Text GLabel 1550 7000 2    60   Input ~ 0
RX
Text GLabel 1750 7100 2    60   Input ~ 0
TX
Text GLabel 10250 2400 2    60   Input ~ 0
RES
Text GLabel 5600 1350 2    60   Input ~ 0
RES
Text GLabel 5500 4150 0    60   Input ~ 0
RES
Text GLabel 7000 2700 0    60   Input ~ 0
SWD_IO
Text GLabel 7000 2850 0    60   Input ~ 0
SWD_CLK
Text GLabel 6000 1050 2    60   Input ~ 0
SWD_CLK
Text GLabel 5600 950  2    60   Input ~ 0
SWD_IO
$Comp
L Device:L_Small L2
U 1 1 58F30B35
P 10350 4600
F 0 "L2" H 10380 4640 50  0000 L CNN
F 1 "6.8nH" H 10380 4560 50  0000 L CNN
F 2 "Inductor_SMD:L_0603_1608Metric" H 10350 4600 50  0001 C CNN
F 3 "" H 10350 4600 50  0001 C CNN
	1    10350 4600
	1    0    0    -1  
$EndComp
$Comp
L Device:C C29
U 1 1 58F4D3BB
P 7800 1350
F 0 "C29" H 7825 1450 50  0000 L CNN
F 1 "1uF" H 7825 1250 50  0000 L CNN
F 2 "Capacitor_SMD:C_0603_1608Metric" H 7838 1200 50  0001 C CNN
F 3 "" H 7800 1350 50  0000 C CNN
	1    7800 1350
	0    -1   -1   0   
$EndComp
$Comp
L Device:C C2
U 1 1 58F56E96
P 2350 2900
F 0 "C2" H 2375 3000 50  0000 L CNN
F 1 "1uF" H 2375 2800 50  0000 L CNN
F 2 "Capacitor_SMD:C_0603_1608Metric" H 2388 2750 50  0001 C CNN
F 3 "" H 2350 2900 50  0000 C CNN
	1    2350 2900
	1    0    0    -1  
$EndComp
$Comp
L Device:C C27
U 1 1 58F589F6
P 2600 2900
F 0 "C27" H 2625 3000 50  0000 L CNN
F 1 "1uF" H 2625 2800 50  0000 L CNN
F 2 "Capacitor_SMD:C_0603_1608Metric" H 2638 2750 50  0001 C CNN
F 3 "" H 2600 2900 50  0000 C CNN
	1    2600 2900
	1    0    0    -1  
$EndComp
$Comp
L Device:C C28
U 1 1 58F599E4
P 2850 2900
F 0 "C28" H 2875 3000 50  0000 L CNN
F 1 "1uF" H 2875 2800 50  0000 L CNN
F 2 "Capacitor_SMD:C_0603_1608Metric" H 2888 2750 50  0001 C CNN
F 3 "" H 2850 2900 50  0000 C CNN
	1    2850 2900
	1    0    0    -1  
$EndComp
$Comp
L Device:R R21
U 1 1 591FF448
P 5600 3900
F 0 "R21" V 5680 3900 50  0000 C CNN
F 1 "5k" V 5600 3900 50  0000 C CNN
F 2 "Resistor_SMD:R_0603_1608Metric" V 5530 3900 50  0001 C CNN
F 3 "" H 5600 3900 50  0001 C CNN
	1    5600 3900
	1    0    0    -1  
$EndComp
Text Label 1000 1250 0    60   ~ 0
CONN_IN
$Comp
L power:GND #PWR018
U 1 1 594D69CA
P 1950 1850
F 0 "#PWR018" H 1950 1600 50  0001 C CNN
F 1 "GND" H 1950 1700 50  0000 C CNN
F 2 "" H 1950 1850 50  0000 C CNN
F 3 "" H 1950 1850 50  0000 C CNN
	1    1950 1850
	1    0    0    -1  
$EndComp
$Comp
L Device:R R1
U 1 1 594D69E2
P 1750 1150
F 0 "R1" V 1650 1150 50  0000 C CNN
F 1 "10k" V 1750 1150 50  0000 C CNN
F 2 "Resistor_SMD:R_0603_1608Metric" V 1680 1150 50  0001 C CNN
F 3 "" H 1750 1150 50  0000 C CNN
	1    1750 1150
	0    -1   -1   0   
$EndComp
$Comp
L Device:R R10
U 1 1 594D69E8
P 1950 1350
F 0 "R10" V 2030 1350 50  0000 C CNN
F 1 "2.2k" V 1950 1350 50  0000 C CNN
F 2 "Resistor_SMD:R_0603_1608Metric" V 1880 1350 50  0001 C CNN
F 3 "" H 1950 1350 50  0000 C CNN
	1    1950 1350
	1    0    0    -1  
$EndComp
$Comp
L Device:R R3
U 1 1 594D69EE
P 2150 1150
F 0 "R3" V 2230 1150 50  0000 C CNN
F 1 "1k" V 2150 1150 50  0000 C CNN
F 2 "Resistor_SMD:R_0603_1608Metric" V 2080 1150 50  0001 C CNN
F 3 "" H 2150 1150 50  0000 C CNN
	1    2150 1150
	0    1    1    0   
$EndComp
$Comp
L Device:R R7
U 1 1 594D6A1E
P 1500 1500
F 0 "R7" V 1580 1500 50  0000 C CNN
F 1 "*" V 1500 1500 50  0000 C CNN
F 2 "Resistor_SMD:R_0603_1608Metric" V 1430 1500 50  0001 C CNN
F 3 "" H 1500 1500 50  0001 C CNN
	1    1500 1500
	1    0    0    -1  
$EndComp
Text GLabel 2650 750  0    60   Input ~ 0
OUT_1
Text GLabel 2350 1150 2    60   Input ~ 0
IN
$Comp
L Device:R R8
U 1 1 597B0B24
P 5400 1350
F 0 "R8" V 5500 1350 50  0000 C CNN
F 1 "100" V 5400 1350 50  0000 C CNN
F 2 "Resistor_SMD:R_0603_1608Metric" V 5330 1350 50  0001 C CNN
F 3 "" H 5400 1350 50  0001 C CNN
	1    5400 1350
	0    1    1    0   
$EndComp
$Comp
L power:+3V3 #PWR019
U 1 1 59F34007
P 4300 850
F 0 "#PWR019" H 4300 700 50  0001 C CNN
F 1 "+3V3" H 4300 990 50  0000 C CNN
F 2 "" H 4300 850 50  0000 C CNN
F 3 "" H 4300 850 50  0000 C CNN
	1    4300 850 
	1    0    0    -1  
$EndComp
$Comp
L Mechanical:MountingHole MK1
U 1 1 5AA631C4
P 2300 7000
F 0 "MK1" H 2300 7200 50  0000 C CNN
F 1 "Mounting_Hole" H 2300 7125 50  0000 C CNN
F 2 "MountingHole:MountingHole_2.7mm_M2.5" H 2300 7000 50  0001 C CNN
F 3 "" H 2300 7000 50  0001 C CNN
	1    2300 7000
	1    0    0    -1  
$EndComp
$Comp
L Mechanical:MountingHole MK2
U 1 1 5AA6369A
P 2850 7000
F 0 "MK2" H 2850 7200 50  0000 C CNN
F 1 "Mounting_Hole" H 2850 7125 50  0000 C CNN
F 2 "MountingHole:MountingHole_2.7mm_M2.5" H 2850 7000 50  0001 C CNN
F 3 "" H 2850 7000 50  0001 C CNN
	1    2850 7000
	1    0    0    -1  
$EndComp
$Comp
L Mechanical:MountingHole MK3
U 1 1 5AA6377D
P 2600 7250
F 0 "MK3" H 2600 7450 50  0000 C CNN
F 1 "Mounting_Hole" H 2600 7375 50  0000 C CNN
F 2 "MountingHole:MountingHole_2.7mm_M2.5" H 2600 7250 50  0001 C CNN
F 3 "" H 2600 7250 50  0001 C CNN
	1    2600 7250
	1    0    0    -1  
$EndComp
$Comp
L Device:Jumper JP1
U 1 1 5AA64C29
P 5950 4500
F 0 "JP1" H 5950 4650 50  0000 C CNN
F 1 "Jumper" H 5950 4420 50  0000 C CNN
F 2 "Connector_PinHeader_2.54mm:PinHeader_1x02_P2.54mm_Vertical" H 5950 4500 50  0001 C CNN
F 3 "" H 5950 4500 50  0001 C CNN
	1    5950 4500
	0    1    1    0   
$EndComp
$Comp
L power:+3V3 #PWR020
U 1 1 5AA65AB1
P 5600 3650
F 0 "#PWR020" H 5600 3500 50  0001 C CNN
F 1 "+3V3" H 5600 3790 50  0000 C CNN
F 2 "" H 5600 3650 50  0000 C CNN
F 3 "" H 5600 3650 50  0000 C CNN
	1    5600 3650
	1    0    0    -1  
$EndComp
$Comp
L Device:R R12
U 1 1 5AA67ECA
P 4100 3850
F 0 "R12" V 4180 3850 50  0000 C CNN
F 1 "*" V 4100 3850 50  0000 C CNN
F 2 "Resistor_SMD:R_0603_1608Metric" V 4030 3850 50  0001 C CNN
F 3 "" H 4100 3850 50  0001 C CNN
	1    4100 3850
	1    0    0    -1  
$EndComp
$Comp
L Device:R R13
U 1 1 5AA680ED
P 4750 4250
F 0 "R13" V 4830 4250 50  0000 C CNN
F 1 "10k" V 4750 4250 50  0000 C CNN
F 2 "Resistor_SMD:R_0603_1608Metric" V 4680 4250 50  0001 C CNN
F 3 "" H 4750 4250 50  0001 C CNN
	1    4750 4250
	0    1    1    0   
$EndComp
$Comp
L Device:R R20
U 1 1 5AA685C5
P 4500 4500
F 0 "R20" V 4580 4500 50  0000 C CNN
F 1 "100k" V 4500 4500 50  0000 C CNN
F 2 "Resistor_SMD:R_0603_1608Metric" V 4430 4500 50  0001 C CNN
F 3 "" H 4500 4500 50  0001 C CNN
	1    4500 4500
	-1   0    0    1   
$EndComp
$Comp
L power:GND #PWR021
U 1 1 5AA68C9C
P 4500 4750
F 0 "#PWR021" H 4500 4500 50  0001 C CNN
F 1 "GND" H 4500 4600 50  0000 C CNN
F 2 "" H 4500 4750 50  0000 C CNN
F 3 "" H 4500 4750 50  0000 C CNN
	1    4500 4750
	1    0    0    -1  
$EndComp
Text GLabel 4950 4250 2    60   Input ~ 0
LS
Text GLabel 7200 3900 0    60   Input ~ 0
LS
Text Label 1000 950  0    60   ~ 0
PWM_OUT_1
$Comp
L OPA170_SOT23:OPA170_SOT23 U4
U 1 1 5AA74FFB
P 1450 4300
F 0 "U4" H 1450 4200 50  0000 C CNN
F 1 "OPA170_SOT23" H 1450 4550 50  0000 C CNN
F 2 "Package_TO_SOT_SMD:SOT-23-5" H 1450 4300 50  0001 C CNN
F 3 "DOCUMENTATION" H 1450 4300 50  0001 C CNN
	1    1450 4300
	0    -1   -1   0   
$EndComp
$Comp
L Connector_Generic:Conn_01x05 J2
U 1 1 5AA89A44
P 800 1150
F 0 "J2" H 800 1450 50  0000 C CNN
F 1 "Conn_01x05" V 900 1150 50  0000 C CNN
F 2 "TerminalBlock_4UCON:TerminalBlock_4UCON_19963_05x3.5mm_Straight" H 800 1150 50  0001 C CNN
F 3 "" H 800 1150 50  0001 C CNN
	1    800  1150
	-1   0    0    1   
$EndComp
Text GLabel 1100 1450 3    60   Input ~ 0
WLA
Text GLabel 4100 4550 3    60   Input ~ 0
WLA
$Comp
L Device:Crystal_GND24 Y1
U 1 1 5AC211CA
P 8750 5350
F 0 "Y1" V 8600 5400 50  0000 L CNN
F 1 "Crystal_GND24" V 8800 4250 50  0000 L CNN
F 2 "Crystal:Crystal_SMD_3225-4Pin_3.2x2.5mm" H 8750 5350 50  0001 C CNN
F 3 "" H 8750 5350 50  0001 C CNN
	1    8750 5350
	0    1    1    0   
$EndComp
$Comp
L Connector_Generic:Conn_01x03 J4
U 1 1 5AD5CFD2
P 800 7000
F 0 "J4" H 800 7200 50  0000 C CNN
F 1 "Conn_01x03" V 900 7000 50  0000 C CNN
F 2 "Connector_PinHeader_2.54mm:PinHeader_1x03_P2.54mm_Vertical" H 800 7000 50  0001 C CNN
F 3 "" H 800 7000 50  0001 C CNN
	1    800  7000
	-1   0    0    -1  
$EndComp
$Comp
L power:GND #PWR022
U 1 1 5AD5D479
P 1050 7250
F 0 "#PWR022" H 1050 7000 50  0001 C CNN
F 1 "GND" H 1050 7100 50  0000 C CNN
F 2 "" H 1050 7250 50  0000 C CNN
F 3 "" H 1050 7250 50  0000 C CNN
	1    1050 7250
	1    0    0    -1  
$EndComp
$Comp
L Device:R R5
U 1 1 5B0C2812
P 2750 1400
F 0 "R5" V 2830 1400 50  0000 C CNN
F 1 "10k" V 2750 1400 50  0000 C CNN
F 2 "Resistor_SMD:R_0603_1608Metric" V 2680 1400 50  0001 C CNN
F 3 "" H 2750 1400 50  0000 C CNN
	1    2750 1400
	1    0    0    -1  
$EndComp
Wire Wire Line
	10150 4400 10350 4400
Wire Wire Line
	10750 4400 10800 4400
Connection ~ 8350 5200
Wire Wire Line
	8250 5200 8350 5200
Wire Wire Line
	10150 4600 10250 4600
Wire Wire Line
	10250 4500 10250 4600
Wire Wire Line
	10250 4500 10150 4500
Wire Wire Line
	8350 5100 8350 5200
Wire Wire Line
	8450 5200 8450 5100
Wire Wire Line
	8250 5100 8250 5200
Connection ~ 8750 1600
Connection ~ 9150 1600
Connection ~ 9350 1600
Wire Wire Line
	9450 1600 9450 1700
Connection ~ 9250 1600
Wire Wire Line
	9350 1600 9350 1700
Wire Wire Line
	9250 1600 9250 1700
Wire Wire Line
	9150 1600 9150 1700
Connection ~ 8650 1600
Wire Wire Line
	8750 1600 8750 1700
Connection ~ 8450 1600
Wire Wire Line
	8650 1600 8650 1700
Wire Wire Line
	8450 1100 8450 1600
Wire Wire Line
	8350 1600 8350 1700
Wire Wire Line
	8350 1600 8450 1600
Wire Wire Line
	8350 6000 8750 6000
Wire Wire Line
	8750 5950 8750 6000
Connection ~ 8750 6000
Connection ~ 10250 4600
Wire Wire Line
	7950 1600 8150 1600
Wire Wire Line
	850  5850 1100 5850
Wire Wire Line
	1850 5950 1850 5850
Connection ~ 1850 5850
Wire Wire Line
	2100 5750 2100 5850
Connection ~ 2100 5850
Wire Wire Line
	2350 5950 2350 5850
Connection ~ 2350 5850
Wire Wire Line
	2600 5950 2600 5850
Connection ~ 2600 5850
Wire Wire Line
	2850 5950 2850 5850
Connection ~ 2850 5850
Wire Wire Line
	3100 5950 3100 5850
Connection ~ 3100 5850
Wire Wire Line
	3350 5850 3350 5950
Wire Wire Line
	3350 6350 3350 6250
Wire Wire Line
	3100 6350 3100 6250
Connection ~ 3100 6350
Wire Wire Line
	2850 6350 2850 6250
Connection ~ 2850 6350
Wire Wire Line
	2600 6350 2600 6250
Connection ~ 2600 6350
Wire Wire Line
	2350 6350 2350 6250
Connection ~ 2350 6350
Wire Wire Line
	2100 6250 2100 6350
Connection ~ 2100 6350
Wire Wire Line
	1850 6350 1850 6250
Connection ~ 1850 6350
Wire Wire Line
	8150 1600 8150 1700
Wire Wire Line
	7500 1350 7500 1600
Wire Wire Line
	7500 1600 7650 1600
Wire Wire Line
	850  5850 850  5950
Wire Wire Line
	1600 5950 1600 5850
Connection ~ 1600 5850
Wire Wire Line
	1350 5950 1350 5850
Connection ~ 1350 5850
Wire Wire Line
	1100 5950 1100 5850
Connection ~ 1100 5850
Wire Wire Line
	1600 6350 1600 6250
Wire Wire Line
	1350 6350 1350 6250
Connection ~ 1600 6350
Wire Wire Line
	1100 6350 1100 6250
Connection ~ 1350 6350
Wire Wire Line
	850  6350 850  6250
Connection ~ 1100 6350
Wire Wire Line
	4600 1050 4600 1150
Wire Wire Line
	4600 1050 4700 1050
Wire Wire Line
	4700 1150 4600 1150
Connection ~ 4600 1150
Wire Wire Line
	4700 1250 4600 1250
Connection ~ 4600 1250
Wire Wire Line
	4700 1350 4600 1350
Connection ~ 4600 1350
Wire Wire Line
	5200 950  5250 950 
Wire Wire Line
	5200 1050 5250 1050
Wire Wire Line
	1250 5150 1450 5150
Wire Wire Line
	3800 3000 3800 3100
Wire Wire Line
	3800 2400 3800 2450
Wire Wire Line
	1800 2450 1850 2450
Wire Wire Line
	1100 3100 1850 3100
Connection ~ 3800 3100
Wire Wire Line
	9000 6000 9000 5950
Wire Wire Line
	9250 5100 9250 5200
Wire Wire Line
	9250 5500 9250 5600
Wire Wire Line
	9250 6000 9250 5950
Connection ~ 9000 6000
Wire Wire Line
	9150 5600 9250 5600
Wire Wire Line
	9150 5100 9150 5600
Connection ~ 9250 5600
Wire Wire Line
	9500 6000 9500 5950
Connection ~ 9250 6000
Wire Wire Line
	7200 2500 7350 2500
Wire Wire Line
	7050 2600 7350 2600
Connection ~ 3800 2450
Wire Wire Line
	3300 2750 3300 3100
Connection ~ 3300 3100
Wire Wire Line
	9250 5200 9500 5200
Wire Wire Line
	9500 5200 9500 5650
Connection ~ 9250 5200
Wire Wire Line
	10150 4000 10600 4000
Wire Wire Line
	6000 2450 6000 2750
Wire Wire Line
	5700 2450 6000 2450
Wire Wire Line
	5300 2750 5400 2750
Wire Wire Line
	5300 2450 5400 2450
Wire Wire Line
	5000 2450 4950 2450
Wire Wire Line
	4750 2750 4850 2750
Wire Wire Line
	10150 3600 10300 3600
Wire Wire Line
	7150 4400 7350 4400
Wire Wire Line
	7200 4100 7350 4100
Wire Wire Line
	1000 7000 1100 7000
Wire Wire Line
	1400 7000 1550 7000
Wire Wire Line
	1000 7100 1100 7100
Wire Wire Line
	1400 7100 1750 7100
Wire Wire Line
	10150 2400 10250 2400
Wire Wire Line
	850  6350 1100 6350
Wire Wire Line
	10350 4400 10350 4500
Connection ~ 10350 4400
Wire Wire Line
	10800 4750 10800 4800
Wire Wire Line
	10250 4800 10350 4800
Wire Wire Line
	10350 4700 10350 4800
Connection ~ 10350 4800
Wire Wire Line
	10800 4300 10800 4400
Connection ~ 10800 4400
Wire Wire Line
	10900 4800 10900 4300
Connection ~ 10800 4800
Wire Wire Line
	10300 3600 10300 3500
Wire Wire Line
	10150 3900 10450 3900
Wire Wire Line
	10450 3900 10450 3500
Wire Wire Line
	10600 4000 10600 3500
Wire Wire Line
	7500 1350 7650 1350
Connection ~ 7500 1600
Wire Wire Line
	7950 1350 8950 1350
Wire Wire Line
	8950 1350 8950 1700
Wire Wire Line
	1000 2450 1100 2450
Wire Wire Line
	2850 2750 2850 2450
Connection ~ 2850 2450
Wire Wire Line
	2600 2400 2600 2450
Connection ~ 2600 2450
Wire Wire Line
	2350 2750 2350 2450
Connection ~ 2350 2450
Wire Wire Line
	2850 3050 2850 3100
Connection ~ 2850 3100
Wire Wire Line
	2600 3050 2600 3100
Connection ~ 2600 3100
Wire Wire Line
	2350 3050 2350 3100
Wire Wire Line
	2100 3050 2100 3100
Connection ~ 2350 3100
Wire Wire Line
	1850 3050 1850 3100
Connection ~ 2100 3100
Wire Wire Line
	2100 2750 2100 2450
Wire Wire Line
	1850 2750 1850 2450
Connection ~ 2100 2450
Connection ~ 1850 2450
Wire Wire Line
	1950 1150 1950 1200
Wire Wire Line
	1950 1500 1950 1650
Wire Wire Line
	1900 1150 1950 1150
Connection ~ 1950 1150
Wire Wire Line
	2300 1150 2350 1150
Wire Wire Line
	4600 850  4600 950 
Wire Wire Line
	4600 950  4700 950 
Wire Wire Line
	5550 950  5600 950 
Wire Wire Line
	5550 1050 6000 1050
Wire Notes Line
	6550 600  6550 1700
Wire Wire Line
	5200 1350 5250 1350
Wire Wire Line
	5550 1350 5600 1350
Wire Wire Line
	5600 3750 5600 3650
Wire Wire Line
	5500 4150 5600 4150
Wire Wire Line
	5600 4050 5600 4150
Connection ~ 5600 4150
Wire Wire Line
	5950 4150 5950 4200
Wire Wire Line
	5600 4650 5600 4850
Wire Wire Line
	5600 4850 5950 4850
Wire Wire Line
	5950 4850 5950 4800
Connection ~ 5600 4850
Wire Notes Line
	6200 3400 6200 5150
Wire Wire Line
	4100 3700 4100 3650
Wire Wire Line
	4100 4050 4100 4000
Wire Wire Line
	4400 4250 4500 4250
Wire Wire Line
	4500 4350 4500 4250
Connection ~ 4500 4250
Wire Wire Line
	4900 4250 4950 4250
Wire Wire Line
	1450 5150 1450 4850
Wire Wire Line
	1550 3750 1550 3650
Wire Wire Line
	1550 3650 1800 3650
Wire Wire Line
	1800 3650 1800 4150
Wire Wire Line
	1950 3650 1950 4150
Connection ~ 1800 3650
Wire Wire Line
	1950 4450 1950 5150
Connection ~ 1450 5150
Connection ~ 1950 5150
Wire Wire Line
	1450 3750 1450 3650
Wire Wire Line
	1550 4850 2100 4850
Wire Wire Line
	2100 4850 2100 4750
Wire Wire Line
	1100 2450 1100 2550
Wire Wire Line
	1000 1350 1100 1350
Wire Wire Line
	1100 1350 1100 1450
Wire Wire Line
	4500 4650 4500 4750
Wire Wire Line
	4100 4550 4100 4450
Connection ~ 1100 2450
Wire Wire Line
	7200 3900 7350 3900
Wire Wire Line
	8750 5100 8750 5150
Wire Wire Line
	8750 5500 8750 5600
Wire Wire Line
	8750 5600 9000 5600
Wire Wire Line
	9000 5100 9000 5600
Wire Wire Line
	9000 5100 8850 5100
Connection ~ 9000 5600
Wire Wire Line
	8750 5650 8500 5650
Wire Wire Line
	8500 5650 8500 5150
Wire Wire Line
	8500 5150 8750 5150
Connection ~ 8750 5150
Wire Wire Line
	8550 5350 8350 5350
Connection ~ 8350 5350
Wire Wire Line
	8950 5350 8950 5550
Wire Wire Line
	8950 5550 8350 5550
Connection ~ 8350 5550
Wire Wire Line
	1000 6900 1050 6900
Wire Wire Line
	1050 6900 1050 7250
$Comp
L Device:Q_NMOS_GSD Q1
U 1 1 5B0C8E04
P 4200 4250
F 0 "Q1" H 4100 4100 50  0000 L CNN
F 1 "Q_NMOS_GSD" V 4450 4050 50  0000 L CNN
F 2 "Package_TO_SOT_SMD:SOT-23" H 4400 4350 50  0001 C CNN
F 3 "" H 4200 4250 50  0001 C CNN
	1    4200 4250
	-1   0    0    -1  
$EndComp
Wire Wire Line
	7200 2500 7200 2400
Wire Wire Line
	7050 2600 7050 2400
$Comp
L Device:LED D1
U 1 1 5B19113B
P 5550 2450
F 0 "D1" H 5550 2550 50  0000 C CNN
F 1 "LED" H 5550 2350 50  0000 C CNN
F 2 "LED_SMD:LED_0603_1608Metric" H 5550 2450 50  0001 C CNN
F 3 "" H 5550 2450 50  0001 C CNN
	1    5550 2450
	-1   0    0    -1  
$EndComp
$Comp
L Device:LED D2
U 1 1 5B1918C9
P 5550 2750
F 0 "D2" H 5550 2850 50  0000 C CNN
F 1 "LED" H 5550 2650 50  0000 C CNN
F 2 "LED_SMD:LED_0603_1608Metric" H 5550 2750 50  0001 C CNN
F 3 "" H 5550 2750 50  0001 C CNN
	1    5550 2750
	-1   0    0    -1  
$EndComp
$Comp
L Device:LED D3
U 1 1 5B1919B9
P 5550 3050
F 0 "D3" H 5550 3150 50  0000 C CNN
F 1 "LED" H 5550 2950 50  0000 C CNN
F 2 "LED_SMD:LED_0603_1608Metric" H 5550 3050 50  0001 C CNN
F 3 "" H 5550 3050 50  0001 C CNN
	1    5550 3050
	-1   0    0    -1  
$EndComp
Wire Wire Line
	5700 3050 6000 3050
Wire Wire Line
	5700 2750 6000 2750
Connection ~ 6000 3050
Connection ~ 6000 2750
$Comp
L Device:R R23
U 1 1 5B192404
P 5150 3050
F 0 "R23" V 5230 3050 50  0000 C CNN
F 1 "1k" V 5150 3050 50  0000 C CNN
F 2 "Resistor_SMD:R_0603_1608Metric" V 5080 3050 50  0001 C CNN
F 3 "" H 5150 3050 50  0001 C CNN
	1    5150 3050
	0    -1   -1   0   
$EndComp
Text GLabel 4750 3050 0    60   Input ~ 0
LC2
Wire Wire Line
	5300 3050 5400 3050
Wire Wire Line
	4750 3050 4900 3050
Text GLabel 10750 3500 1    60   Input ~ 0
LC2
Wire Wire Line
	10150 3700 10750 3700
Wire Wire Line
	10750 3700 10750 3500
$Comp
L power:VCC #PWR023
U 1 1 5B193BB8
P 4100 3650
F 0 "#PWR023" H 4100 3500 50  0001 C CNN
F 1 "VCC" H 4100 3800 50  0000 C CNN
F 2 "" H 4100 3650 50  0000 C CNN
F 3 "" H 4100 3650 50  0000 C CNN
	1    4100 3650
	1    0    0    -1  
$EndComp
Wire Wire Line
	1100 2550 1000 2550
Wire Wire Line
	1000 2650 1100 2650
Wire Wire Line
	1100 2650 1100 2750
Connection ~ 1850 3100
Wire Wire Line
	1000 2750 1100 2750
Connection ~ 1100 2750
$Comp
L Connector_Generic:Conn_01x05 J1
U 1 1 5B225EAF
P 800 2650
F 0 "J1" H 800 2950 50  0000 C CNN
F 1 "Conn_01x05" V 900 2650 50  0000 C CNN
F 2 "TerminalBlock_4UCON:TerminalBlock_4UCON_19963_05x3.5mm_Straight" H 800 2650 50  0001 C CNN
F 3 "" H 800 2650 50  0001 C CNN
	1    800  2650
	-1   0    0    -1  
$EndComp
Wire Wire Line
	1000 2850 1100 2850
Connection ~ 1100 2850
Wire Wire Line
	1550 1150 1550 1250
Wire Wire Line
	1550 1250 1000 1250
Text Label 1000 1150 0    60   ~ 0
POWER_LED
Wire Wire Line
	1550 1150 1600 1150
Wire Wire Line
	1000 950  2950 950 
Wire Wire Line
	1000 1050 2900 1050
Text Label 1000 1050 0    60   ~ 0
PWM_OUT_2
Text GLabel 7300 4650 3    60   Input ~ 0
OUT_2
Wire Wire Line
	7300 4300 7300 4650
Wire Wire Line
	7150 4650 7150 4400
$Comp
L OPA170_SOT23:OPA170_SOT23 U1
U 1 1 5AA74C0C
P 3550 1050
F 0 "U1" H 3550 950 50  0000 C CNN
F 1 "OPA170_SOT23" H 3550 1300 50  0000 C CNN
F 2 "Package_TO_SOT_SMD:SOT-23-5" H 3550 1050 50  0001 C CNN
F 3 "DOCUMENTATION" H 3550 1050 50  0001 C CNN
	1    3550 1050
	1    0    0    -1  
$EndComp
$Comp
L OPA170_SOT23:OPA170_SOT23 U6
U 1 1 5B22C673
P 3550 1550
F 0 "U6" H 3550 1450 50  0000 C CNN
F 1 "OPA170_SOT23" H 3550 1800 50  0000 C CNN
F 2 "Package_TO_SOT_SMD:SOT-23-5" H 3550 1550 50  0001 C CNN
F 3 "DOCUMENTATION" H 3550 1550 50  0001 C CNN
	1    3550 1550
	1    0    0    -1  
$EndComp
$Comp
L Device:R R11
U 1 1 5B22D340
P 2300 1650
F 0 "R11" V 2380 1650 50  0000 C CNN
F 1 "10k" V 2300 1650 50  0000 C CNN
F 2 "Resistor_SMD:R_0603_1608Metric" V 2230 1650 50  0001 C CNN
F 3 "" H 2300 1650 50  0000 C CNN
	1    2300 1650
	0    -1   -1   0   
$EndComp
Wire Wire Line
	2950 1750 2750 1750
Connection ~ 1950 1750
Wire Wire Line
	3000 1050 2950 1050
Wire Wire Line
	2950 1050 2950 1550
Wire Wire Line
	2950 1550 3000 1550
Connection ~ 2950 1550
Wire Wire Line
	3000 1450 2900 1450
Wire Wire Line
	2900 1050 2900 1450
Wire Wire Line
	4300 1550 4100 1550
Wire Wire Line
	4300 850  4300 1050
Wire Wire Line
	4100 1050 4300 1050
Connection ~ 4300 1050
Wire Wire Line
	2900 1800 4150 1800
Wire Wire Line
	4150 1800 4150 1650
Wire Wire Line
	4150 1650 4100 1650
Connection ~ 2900 1450
Wire Wire Line
	4100 1150 4150 1150
Wire Wire Line
	4150 1150 4150 750 
Wire Wire Line
	4150 750  2950 750 
Wire Wire Line
	2950 750  2950 950 
Connection ~ 2950 950 
Wire Wire Line
	2750 750  2750 1150
Wire Wire Line
	2750 1150 3000 1150
Wire Wire Line
	2750 750  2650 750 
Connection ~ 2750 1150
Wire Wire Line
	2750 1550 2750 1750
Connection ~ 2750 1750
Wire Wire Line
	1950 1650 2150 1650
Connection ~ 1950 1650
Text GLabel 2600 1900 0    60   Input ~ 0
OUT_2
Wire Wire Line
	2450 1650 2850 1650
Wire Wire Line
	2600 1900 2850 1900
Wire Wire Line
	2850 1900 2850 1650
Connection ~ 2850 1650
Wire Notes Line
	600  600  600  7500
Wire Notes Line
	600  600  6550 600 
Wire Notes Line
	600  2100 4450 2100
Wire Notes Line
	5200 5150 6200 5150
Wire Notes Line
	600  5500 3850 5500
Wire Notes Line
	3150 6700 3150 7400
Wire Notes Line
	2000 6700 2000 7500
Wire Notes Line
	3150 7400 2000 7400
Wire Notes Line
	2000 7500 600  7500
Wire Notes Line
	3500 6700 3500 5500
Wire Wire Line
	7300 4300 7350 4300
Wire Wire Line
	1000 1150 1500 1150
Wire Wire Line
	1500 1150 1500 1350
Wire Wire Line
	1500 1650 1500 1750
Text Notes 3500 7650 0    60   ~ 0
U6, R11 - второй канал\nQ1, R12, R13, R20 - яркий светодиод визуализации работы\nR1, R3, R10 - проверка присоединения второй платы (18В -> 3.3В)
Wire Wire Line
	8350 5200 8450 5200
Wire Wire Line
	8350 5200 8350 5350
Wire Wire Line
	8750 1600 9150 1600
Wire Wire Line
	9150 1600 9250 1600
Wire Wire Line
	9350 1600 9450 1600
Wire Wire Line
	9250 1600 9350 1600
Wire Wire Line
	8650 1600 8750 1600
Wire Wire Line
	8450 1600 8450 1700
Wire Wire Line
	8450 1600 8650 1600
Wire Wire Line
	8750 6000 9000 6000
Wire Wire Line
	8750 6000 8750 6100
Wire Wire Line
	10250 4600 10250 4800
Wire Wire Line
	1850 5850 2100 5850
Wire Wire Line
	2100 5850 2100 5950
Wire Wire Line
	2100 5850 2350 5850
Wire Wire Line
	2350 5850 2600 5850
Wire Wire Line
	2600 5850 2850 5850
Wire Wire Line
	2850 5850 3100 5850
Wire Wire Line
	3100 5850 3350 5850
Wire Wire Line
	3100 6350 3350 6350
Wire Wire Line
	2850 6350 3100 6350
Wire Wire Line
	2600 6350 2850 6350
Wire Wire Line
	2350 6350 2600 6350
Wire Wire Line
	2100 6350 2100 6450
Wire Wire Line
	2100 6350 2350 6350
Wire Wire Line
	1850 6350 2100 6350
Wire Wire Line
	1600 5850 1850 5850
Wire Wire Line
	1350 5850 1600 5850
Wire Wire Line
	1100 5850 1350 5850
Wire Wire Line
	1600 6350 1850 6350
Wire Wire Line
	1350 6350 1600 6350
Wire Wire Line
	1100 6350 1350 6350
Wire Wire Line
	4600 1150 4600 1250
Wire Wire Line
	4600 1250 4600 1350
Wire Wire Line
	4600 1350 4600 1450
Wire Wire Line
	3800 3100 3800 3150
Wire Wire Line
	9000 6000 9250 6000
Wire Wire Line
	9250 5600 9250 5650
Wire Wire Line
	9250 6000 9500 6000
Wire Wire Line
	3800 2450 3800 2700
Wire Wire Line
	3300 3100 3800 3100
Wire Wire Line
	9250 5200 9250 5300
Wire Wire Line
	10350 4400 10450 4400
Wire Wire Line
	10350 4800 10800 4800
Wire Wire Line
	10800 4400 10800 4450
Wire Wire Line
	10800 4800 10800 4900
Wire Wire Line
	10800 4800 10900 4800
Wire Wire Line
	7500 1600 7500 1650
Wire Wire Line
	2600 2450 2850 2450
Wire Wire Line
	2600 2450 2600 2750
Wire Wire Line
	2350 2450 2600 2450
Wire Wire Line
	2850 3100 3300 3100
Wire Wire Line
	2600 3100 2850 3100
Wire Wire Line
	2350 3100 2600 3100
Wire Wire Line
	2100 3100 2350 3100
Wire Wire Line
	2100 2450 2350 2450
Wire Wire Line
	1850 2450 2100 2450
Wire Wire Line
	1950 1150 2000 1150
Wire Wire Line
	5600 4150 5950 4150
Wire Wire Line
	5600 4150 5600 4350
Wire Wire Line
	5600 4850 5600 4900
Wire Wire Line
	4500 4250 4600 4250
Wire Wire Line
	1800 3650 1950 3650
Wire Wire Line
	1450 5150 1950 5150
Wire Wire Line
	1950 5150 1950 5250
Wire Wire Line
	1950 5150 2200 5150
Wire Wire Line
	1100 2450 1500 2450
Wire Wire Line
	9000 5600 9000 5650
Wire Wire Line
	8750 5150 8750 5200
Wire Wire Line
	8350 5350 8350 5550
Wire Wire Line
	8350 5550 8350 6000
Wire Wire Line
	6000 3050 6000 3150
Wire Wire Line
	6000 2750 6000 3050
Wire Wire Line
	1850 3100 2100 3100
Wire Wire Line
	1100 2750 1100 2850
Wire Wire Line
	1100 2850 1100 3100
Wire Wire Line
	1950 1750 1950 1850
Wire Wire Line
	1950 1750 1500 1750
Wire Wire Line
	2950 1550 2950 1750
Wire Wire Line
	4300 1050 4300 1550
Wire Wire Line
	2900 1450 2900 1800
Wire Wire Line
	2950 950  3000 950 
Wire Wire Line
	2750 1150 2750 1250
Wire Wire Line
	2750 1750 1950 1750
Wire Wire Line
	1950 1650 1950 1750
Wire Wire Line
	2850 1650 3000 1650
Wire Notes Line
	600  6700 3500 6700
Wire Wire Line
	2850 2450 3000 2450
Wire Wire Line
	3600 2450 3800 2450
Wire Wire Line
	1250 5050 1350 5050
Wire Wire Line
	1800 4450 1800 5050
Connection ~ 1350 5050
Wire Wire Line
	1350 5050 1800 5050
Wire Wire Line
	1350 4850 1350 5050
Wire Wire Line
	2100 4750 2100 4500
Wire Wire Line
	2100 4500 2400 4500
Connection ~ 2100 4750
Wire Wire Line
	3500 4700 3550 4700
Wire Wire Line
	3550 4700 3550 5150
Connection ~ 3550 5150
Wire Wire Line
	3550 5150 3600 5150
Wire Wire Line
	3000 5150 3550 5150
Wire Wire Line
	3500 4500 3600 4500
Wire Wire Line
	3500 4600 3550 4600
Wire Wire Line
	3550 4600 3550 4350
Wire Wire Line
	7000 2700 7350 2700
Wire Wire Line
	7000 2850 7100 2850
Wire Wire Line
	7100 2850 7100 2800
Wire Wire Line
	7100 2800 7350 2800
$Comp
L Connector_Generic:Conn_01x03 J5
U 1 1 5C0088B1
P 7050 3200
F 0 "J5" H 7150 3200 50  0000 C CNN
F 1 "Conn_01x03" H 7050 3400 50  0000 C CNN
F 2 "Connector_PinHeader_1.27mm:PinHeader_1x03_P1.27mm_Vertical" H 7050 3200 50  0001 C CNN
F 3 "~" H 7050 3200 50  0001 C CNN
	1    7050 3200
	-1   0    0    1   
$EndComp
Wire Wire Line
	7250 3100 7350 3100
Wire Wire Line
	7250 3200 7350 3200
Wire Wire Line
	7250 3300 7350 3300
$Comp
L Connector_Generic:Conn_01x04 J6
U 1 1 5BC12BAA
P 5800 1900
F 0 "J6" V 5800 2100 50  0000 L CNN
F 1 "Conn_01x04" V 5900 1650 50  0000 L CNN
F 2 "Connector_PinHeader_1.27mm:PinHeader_1x04_P1.27mm_Vertical" H 5800 1900 50  0001 C CNN
F 3 "~" H 5800 1900 50  0001 C CNN
	1    5800 1900
	0    -1   -1   0   
$EndComp
Wire Wire Line
	6000 2450 6000 2100
Connection ~ 6000 2450
Wire Wire Line
	4950 2000 4950 2150
Wire Wire Line
	5700 2100 5700 2150
Wire Wire Line
	5700 2150 4950 2150
Connection ~ 4950 2150
Wire Wire Line
	4950 2150 4950 2450
Wire Wire Line
	5800 2100 5800 2200
Wire Wire Line
	5800 2200 4850 2200
Wire Wire Line
	4850 2200 4850 2750
Connection ~ 4850 2750
Wire Wire Line
	4850 2750 5000 2750
Wire Wire Line
	5900 2100 5900 2250
Wire Wire Line
	5900 2250 4900 2250
Wire Wire Line
	4900 2250 4900 3050
Connection ~ 4900 3050
Wire Wire Line
	4900 3050 5000 3050
Wire Notes Line
	6150 1700 6150 3400
Wire Notes Line
	4450 1700 6550 1700
Wire Notes Line
	4450 600  4450 3400
Wire Notes Line
	5200 5000 3850 5000
Wire Notes Line
	3850 3400 3850 5500
Wire Notes Line
	5200 3400 5200 5150
Wire Notes Line
	600  3400 6200 3400
$Comp
L Device:R R22
U 1 1 5C3AA0A1
P 2400 4950
F 0 "R22" V 2480 4950 50  0000 C CNN
F 1 "100k" V 2400 4950 50  0000 C CNN
F 2 "Resistor_SMD:R_0603_1608Metric" V 2330 4950 50  0001 C CNN
F 3 "" H 2400 4950 50  0000 C CNN
	1    2400 4950
	1    0    0    -1  
$EndComp
Wire Wire Line
	2200 4800 2200 4750
Wire Wire Line
	2200 4750 2100 4750
Wire Wire Line
	2200 5100 2200 5150
Connection ~ 2200 5150
Wire Wire Line
	2200 5150 2300 5150
Wire Wire Line
	2400 4600 2300 4600
Wire Wire Line
	2300 4600 2300 5150
Connection ~ 2300 5150
Wire Wire Line
	2300 5150 2400 5150
Wire Wire Line
	2400 4800 2400 4700
Wire Wire Line
	2400 5100 2400 5150
Connection ~ 2400 5150
Wire Wire Line
	2400 5150 2700 5150
$EndSCHEMATC
